   1              		.cpu cortex-m4
   2              		.eabi_attribute 27, 1
   3              		.eabi_attribute 28, 1
   4              		.eabi_attribute 20, 1
   5              		.eabi_attribute 21, 1
   6              		.eabi_attribute 23, 3
   7              		.eabi_attribute 24, 1
   8              		.eabi_attribute 25, 1
   9              		.eabi_attribute 26, 1
  10              		.eabi_attribute 30, 6
  11              		.eabi_attribute 34, 1
  12              		.eabi_attribute 18, 4
  13              		.file	"SSD1306.c"
  14              		.text
  15              	.Ltext0:
  16              		.cfi_sections	.debug_frame
  17              		.section	.bss.actCol,"aw",%nobits
  20              	actCol:
  21 0000 00       		.space	1
  22              		.section	.bss.actPage,"aw",%nobits
  25              	actPage:
  26 0000 00       		.space	1
  27              		.section	.data.font,"aw",%progbits
  28              		.align	2
  31              	font:
  32 0000 00       		.byte	0
  33 0001 00       		.byte	0
  34 0002 00       		.byte	0
  35 0003 00       		.byte	0
  36 0004 00       		.byte	0
  37 0005 00       		.byte	0
  38 0006 00       		.byte	0
  39 0007 00       		.byte	0
  40 0008 2F       		.byte	47
  41 0009 00       		.byte	0
  42 000a 00       		.byte	0
  43 000b 00       		.byte	0
  44 000c 00       		.byte	0
  45 000d 03       		.byte	3
  46 000e 00       		.byte	0
  47 000f 03       		.byte	3
  48 0010 00       		.byte	0
  49 0011 00       		.byte	0
  50 0012 14       		.byte	20
  51 0013 3E       		.byte	62
  52 0014 14       		.byte	20
  53 0015 3E       		.byte	62
  54 0016 14       		.byte	20
  55 0017 00       		.byte	0
  56 0018 24       		.byte	36
  57 0019 2A       		.byte	42
  58 001a 7F       		.byte	127
  59 001b 2A       		.byte	42
  60 001c 12       		.byte	18
  61 001d 00       		.byte	0
  62 001e 22       		.byte	34
  63 001f 10       		.byte	16
  64 0020 08       		.byte	8
  65 0021 04       		.byte	4
  66 0022 22       		.byte	34
  67 0023 00       		.byte	0
  68 0024 18       		.byte	24
  69 0025 24       		.byte	36
  70 0026 24       		.byte	36
  71 0027 1E       		.byte	30
  72 0028 04       		.byte	4
  73 0029 00       		.byte	0
  74 002a 00       		.byte	0
  75 002b 00       		.byte	0
  76 002c 03       		.byte	3
  77 002d 00       		.byte	0
  78 002e 00       		.byte	0
  79 002f 00       		.byte	0
  80 0030 00       		.byte	0
  81 0031 1C       		.byte	28
  82 0032 22       		.byte	34
  83 0033 41       		.byte	65
  84 0034 00       		.byte	0
  85 0035 00       		.byte	0
  86 0036 00       		.byte	0
  87 0037 41       		.byte	65
  88 0038 22       		.byte	34
  89 0039 1C       		.byte	28
  90 003a 00       		.byte	0
  91 003b 00       		.byte	0
  92 003c 2A       		.byte	42
  93 003d 1C       		.byte	28
  94 003e 3E       		.byte	62
  95 003f 1C       		.byte	28
  96 0040 2A       		.byte	42
  97 0041 00       		.byte	0
  98 0042 08       		.byte	8
  99 0043 08       		.byte	8
 100 0044 3E       		.byte	62
 101 0045 08       		.byte	8
 102 0046 08       		.byte	8
 103 0047 00       		.byte	0
 104 0048 00       		.byte	0
 105 0049 40       		.byte	64
 106 004a 20       		.byte	32
 107 004b 00       		.byte	0
 108 004c 00       		.byte	0
 109 004d 00       		.byte	0
 110 004e 08       		.byte	8
 111 004f 08       		.byte	8
 112 0050 08       		.byte	8
 113 0051 08       		.byte	8
 114 0052 08       		.byte	8
 115 0053 00       		.byte	0
 116 0054 00       		.byte	0
 117 0055 00       		.byte	0
 118 0056 20       		.byte	32
 119 0057 00       		.byte	0
 120 0058 00       		.byte	0
 121 0059 00       		.byte	0
 122 005a 00       		.byte	0
 123 005b C0       		.byte	-64
 124 005c 30       		.byte	48
 125 005d 0C       		.byte	12
 126 005e 03       		.byte	3
 127 005f 00       		.byte	0
 128 0060 1E       		.byte	30
 129 0061 29       		.byte	41
 130 0062 2D       		.byte	45
 131 0063 25       		.byte	37
 132 0064 1E       		.byte	30
 133 0065 00       		.byte	0
 134 0066 00       		.byte	0
 135 0067 22       		.byte	34
 136 0068 3F       		.byte	63
 137 0069 20       		.byte	32
 138 006a 00       		.byte	0
 139 006b 00       		.byte	0
 140 006c 32       		.byte	50
 141 006d 29       		.byte	41
 142 006e 29       		.byte	41
 143 006f 29       		.byte	41
 144 0070 26       		.byte	38
 145 0071 00       		.byte	0
 146 0072 12       		.byte	18
 147 0073 21       		.byte	33
 148 0074 29       		.byte	41
 149 0075 29       		.byte	41
 150 0076 16       		.byte	22
 151 0077 00       		.byte	0
 152 0078 07       		.byte	7
 153 0079 08       		.byte	8
 154 007a 08       		.byte	8
 155 007b 08       		.byte	8
 156 007c 3E       		.byte	62
 157 007d 00       		.byte	0
 158 007e 17       		.byte	23
 159 007f 25       		.byte	37
 160 0080 25       		.byte	37
 161 0081 25       		.byte	37
 162 0082 18       		.byte	24
 163 0083 00       		.byte	0
 164 0084 1E       		.byte	30
 165 0085 25       		.byte	37
 166 0086 25       		.byte	37
 167 0087 25       		.byte	37
 168 0088 18       		.byte	24
 169 0089 00       		.byte	0
 170 008a 01       		.byte	1
 171 008b 01       		.byte	1
 172 008c 09       		.byte	9
 173 008d 09       		.byte	9
 174 008e 3E       		.byte	62
 175 008f 00       		.byte	0
 176 0090 1A       		.byte	26
 177 0091 25       		.byte	37
 178 0092 25       		.byte	37
 179 0093 25       		.byte	37
 180 0094 1A       		.byte	26
 181 0095 00       		.byte	0
 182 0096 06       		.byte	6
 183 0097 09       		.byte	9
 184 0098 09       		.byte	9
 185 0099 09       		.byte	9
 186 009a 3E       		.byte	62
 187 009b 00       		.byte	0
 188 009c 00       		.byte	0
 189 009d 00       		.byte	0
 190 009e 22       		.byte	34
 191 009f 00       		.byte	0
 192 00a0 00       		.byte	0
 193 00a1 00       		.byte	0
 194 00a2 00       		.byte	0
 195 00a3 40       		.byte	64
 196 00a4 22       		.byte	34
 197 00a5 00       		.byte	0
 198 00a6 00       		.byte	0
 199 00a7 00       		.byte	0
 200 00a8 00       		.byte	0
 201 00a9 08       		.byte	8
 202 00aa 14       		.byte	20
 203 00ab 22       		.byte	34
 204 00ac 41       		.byte	65
 205 00ad 00       		.byte	0
 206 00ae 14       		.byte	20
 207 00af 14       		.byte	20
 208 00b0 14       		.byte	20
 209 00b1 14       		.byte	20
 210 00b2 14       		.byte	20
 211 00b3 00       		.byte	0
 212 00b4 00       		.byte	0
 213 00b5 41       		.byte	65
 214 00b6 22       		.byte	34
 215 00b7 14       		.byte	20
 216 00b8 08       		.byte	8
 217 00b9 00       		.byte	0
 218 00ba 02       		.byte	2
 219 00bb 01       		.byte	1
 220 00bc 29       		.byte	41
 221 00bd 09       		.byte	9
 222 00be 06       		.byte	6
 223 00bf 00       		.byte	0
 224 00c0 1E       		.byte	30
 225 00c1 21       		.byte	33
 226 00c2 2D       		.byte	45
 227 00c3 2D       		.byte	45
 228 00c4 06       		.byte	6
 229 00c5 00       		.byte	0
 230 00c6 3E       		.byte	62
 231 00c7 11       		.byte	17
 232 00c8 11       		.byte	17
 233 00c9 11       		.byte	17
 234 00ca 3E       		.byte	62
 235 00cb 00       		.byte	0
 236 00cc 3E       		.byte	62
 237 00cd 25       		.byte	37
 238 00ce 25       		.byte	37
 239 00cf 25       		.byte	37
 240 00d0 1A       		.byte	26
 241 00d1 00       		.byte	0
 242 00d2 1E       		.byte	30
 243 00d3 21       		.byte	33
 244 00d4 21       		.byte	33
 245 00d5 21       		.byte	33
 246 00d6 12       		.byte	18
 247 00d7 00       		.byte	0
 248 00d8 3E       		.byte	62
 249 00d9 21       		.byte	33
 250 00da 21       		.byte	33
 251 00db 22       		.byte	34
 252 00dc 1C       		.byte	28
 253 00dd 00       		.byte	0
 254 00de 3F       		.byte	63
 255 00df 29       		.byte	41
 256 00e0 29       		.byte	41
 257 00e1 21       		.byte	33
 258 00e2 21       		.byte	33
 259 00e3 00       		.byte	0
 260 00e4 3F       		.byte	63
 261 00e5 09       		.byte	9
 262 00e6 09       		.byte	9
 263 00e7 01       		.byte	1
 264 00e8 01       		.byte	1
 265 00e9 00       		.byte	0
 266 00ea 1E       		.byte	30
 267 00eb 21       		.byte	33
 268 00ec 29       		.byte	41
 269 00ed 29       		.byte	41
 270 00ee 1A       		.byte	26
 271 00ef 00       		.byte	0
 272 00f0 3F       		.byte	63
 273 00f1 08       		.byte	8
 274 00f2 08       		.byte	8
 275 00f3 08       		.byte	8
 276 00f4 3F       		.byte	63
 277 00f5 00       		.byte	0
 278 00f6 00       		.byte	0
 279 00f7 21       		.byte	33
 280 00f8 3F       		.byte	63
 281 00f9 21       		.byte	33
 282 00fa 00       		.byte	0
 283 00fb 00       		.byte	0
 284 00fc 10       		.byte	16
 285 00fd 20       		.byte	32
 286 00fe 21       		.byte	33
 287 00ff 21       		.byte	33
 288 0100 1F       		.byte	31
 289 0101 00       		.byte	0
 290 0102 3F       		.byte	63
 291 0103 08       		.byte	8
 292 0104 0C       		.byte	12
 293 0105 12       		.byte	18
 294 0106 21       		.byte	33
 295 0107 00       		.byte	0
 296 0108 1F       		.byte	31
 297 0109 20       		.byte	32
 298 010a 20       		.byte	32
 299 010b 20       		.byte	32
 300 010c 20       		.byte	32
 301 010d 00       		.byte	0
 302 010e 3E       		.byte	62
 303 010f 01       		.byte	1
 304 0110 06       		.byte	6
 305 0111 01       		.byte	1
 306 0112 3E       		.byte	62
 307 0113 00       		.byte	0
 308 0114 3E       		.byte	62
 309 0115 01       		.byte	1
 310 0116 01       		.byte	1
 311 0117 02       		.byte	2
 312 0118 3C       		.byte	60
 313 0119 00       		.byte	0
 314 011a 1E       		.byte	30
 315 011b 21       		.byte	33
 316 011c 21       		.byte	33
 317 011d 21       		.byte	33
 318 011e 1E       		.byte	30
 319 011f 00       		.byte	0
 320 0120 3E       		.byte	62
 321 0121 11       		.byte	17
 322 0122 11       		.byte	17
 323 0123 11       		.byte	17
 324 0124 0E       		.byte	14
 325 0125 00       		.byte	0
 326 0126 1E       		.byte	30
 327 0127 21       		.byte	33
 328 0128 29       		.byte	41
 329 0129 71       		.byte	113
 330 012a 5E       		.byte	94
 331 012b 00       		.byte	0
 332 012c 3E       		.byte	62
 333 012d 09       		.byte	9
 334 012e 09       		.byte	9
 335 012f 09       		.byte	9
 336 0130 36       		.byte	54
 337 0131 00       		.byte	0
 338 0132 12       		.byte	18
 339 0133 25       		.byte	37
 340 0134 25       		.byte	37
 341 0135 25       		.byte	37
 342 0136 18       		.byte	24
 343 0137 00       		.byte	0
 344 0138 01       		.byte	1
 345 0139 01       		.byte	1
 346 013a 3F       		.byte	63
 347 013b 01       		.byte	1
 348 013c 01       		.byte	1
 349 013d 00       		.byte	0
 350 013e 1F       		.byte	31
 351 013f 20       		.byte	32
 352 0140 20       		.byte	32
 353 0141 20       		.byte	32
 354 0142 1F       		.byte	31
 355 0143 00       		.byte	0
 356 0144 0F       		.byte	15
 357 0145 10       		.byte	16
 358 0146 20       		.byte	32
 359 0147 10       		.byte	16
 360 0148 0F       		.byte	15
 361 0149 00       		.byte	0
 362 014a 1F       		.byte	31
 363 014b 20       		.byte	32
 364 014c 18       		.byte	24
 365 014d 20       		.byte	32
 366 014e 1F       		.byte	31
 367 014f 00       		.byte	0
 368 0150 31       		.byte	49
 369 0151 0A       		.byte	10
 370 0152 04       		.byte	4
 371 0153 0A       		.byte	10
 372 0154 31       		.byte	49
 373 0155 00       		.byte	0
 374 0156 07       		.byte	7
 375 0157 28       		.byte	40
 376 0158 28       		.byte	40
 377 0159 28       		.byte	40
 378 015a 1F       		.byte	31
 379 015b 00       		.byte	0
 380 015c 31       		.byte	49
 381 015d 29       		.byte	41
 382 015e 25       		.byte	37
 383 015f 23       		.byte	35
 384 0160 21       		.byte	33
 385 0161 00       		.byte	0
 386 0162 00       		.byte	0
 387 0163 7F       		.byte	127
 388 0164 41       		.byte	65
 389 0165 41       		.byte	65
 390 0166 00       		.byte	0
 391 0167 00       		.byte	0
 392 0168 00       		.byte	0
 393 0169 03       		.byte	3
 394 016a 0C       		.byte	12
 395 016b 30       		.byte	48
 396 016c C0       		.byte	-64
 397 016d 00       		.byte	0
 398 016e 00       		.byte	0
 399 016f 41       		.byte	65
 400 0170 41       		.byte	65
 401 0171 7F       		.byte	127
 402 0172 00       		.byte	0
 403 0173 00       		.byte	0
 404 0174 00       		.byte	0
 405 0175 02       		.byte	2
 406 0176 01       		.byte	1
 407 0177 02       		.byte	2
 408 0178 00       		.byte	0
 409 0179 00       		.byte	0
 410 017a 40       		.byte	64
 411 017b 40       		.byte	64
 412 017c 40       		.byte	64
 413 017d 40       		.byte	64
 414 017e 40       		.byte	64
 415 017f 00       		.byte	0
 416 0180 01       		.byte	1
 417 0181 02       		.byte	2
 418 0182 00       		.byte	0
 419 0183 00       		.byte	0
 420 0184 00       		.byte	0
 421 0185 00       		.byte	0
 422 0186 1C       		.byte	28
 423 0187 22       		.byte	34
 424 0188 22       		.byte	34
 425 0189 22       		.byte	34
 426 018a 3C       		.byte	60
 427 018b 00       		.byte	0
 428 018c 1F       		.byte	31
 429 018d 22       		.byte	34
 430 018e 22       		.byte	34
 431 018f 22       		.byte	34
 432 0190 1C       		.byte	28
 433 0191 00       		.byte	0
 434 0192 1C       		.byte	28
 435 0193 22       		.byte	34
 436 0194 22       		.byte	34
 437 0195 22       		.byte	34
 438 0196 20       		.byte	32
 439 0197 00       		.byte	0
 440 0198 1C       		.byte	28
 441 0199 22       		.byte	34
 442 019a 22       		.byte	34
 443 019b 22       		.byte	34
 444 019c 1F       		.byte	31
 445 019d 00       		.byte	0
 446 019e 1C       		.byte	28
 447 019f 2A       		.byte	42
 448 01a0 2A       		.byte	42
 449 01a1 2A       		.byte	42
 450 01a2 04       		.byte	4
 451 01a3 00       		.byte	0
 452 01a4 08       		.byte	8
 453 01a5 7E       		.byte	126
 454 01a6 09       		.byte	9
 455 01a7 01       		.byte	1
 456 01a8 01       		.byte	1
 457 01a9 00       		.byte	0
 458 01aa 0C       		.byte	12
 459 01ab 52       		.byte	82
 460 01ac 52       		.byte	82
 461 01ad 52       		.byte	82
 462 01ae 3C       		.byte	60
 463 01af 00       		.byte	0
 464 01b0 3F       		.byte	63
 465 01b1 02       		.byte	2
 466 01b2 02       		.byte	2
 467 01b3 02       		.byte	2
 468 01b4 3C       		.byte	60
 469 01b5 00       		.byte	0
 470 01b6 00       		.byte	0
 471 01b7 00       		.byte	0
 472 01b8 3D       		.byte	61
 473 01b9 00       		.byte	0
 474 01ba 00       		.byte	0
 475 01bb 00       		.byte	0
 476 01bc 20       		.byte	32
 477 01bd 40       		.byte	64
 478 01be 40       		.byte	64
 479 01bf 40       		.byte	64
 480 01c0 3D       		.byte	61
 481 01c1 00       		.byte	0
 482 01c2 3F       		.byte	63
 483 01c3 08       		.byte	8
 484 01c4 08       		.byte	8
 485 01c5 14       		.byte	20
 486 01c6 22       		.byte	34
 487 01c7 00       		.byte	0
 488 01c8 00       		.byte	0
 489 01c9 1F       		.byte	31
 490 01ca 20       		.byte	32
 491 01cb 20       		.byte	32
 492 01cc 00       		.byte	0
 493 01cd 00       		.byte	0
 494 01ce 3C       		.byte	60
 495 01cf 02       		.byte	2
 496 01d0 04       		.byte	4
 497 01d1 02       		.byte	2
 498 01d2 3C       		.byte	60
 499 01d3 00       		.byte	0
 500 01d4 3C       		.byte	60
 501 01d5 02       		.byte	2
 502 01d6 02       		.byte	2
 503 01d7 02       		.byte	2
 504 01d8 3C       		.byte	60
 505 01d9 00       		.byte	0
 506 01da 1C       		.byte	28
 507 01db 22       		.byte	34
 508 01dc 22       		.byte	34
 509 01dd 22       		.byte	34
 510 01de 1C       		.byte	28
 511 01df 00       		.byte	0
 512 01e0 7C       		.byte	124
 513 01e1 12       		.byte	18
 514 01e2 12       		.byte	18
 515 01e3 12       		.byte	18
 516 01e4 0C       		.byte	12
 517 01e5 00       		.byte	0
 518 01e6 0C       		.byte	12
 519 01e7 12       		.byte	18
 520 01e8 12       		.byte	18
 521 01e9 12       		.byte	18
 522 01ea 7E       		.byte	126
 523 01eb 00       		.byte	0
 524 01ec 3C       		.byte	60
 525 01ed 02       		.byte	2
 526 01ee 02       		.byte	2
 527 01ef 02       		.byte	2
 528 01f0 04       		.byte	4
 529 01f1 00       		.byte	0
 530 01f2 24       		.byte	36
 531 01f3 2A       		.byte	42
 532 01f4 2A       		.byte	42
 533 01f5 2A       		.byte	42
 534 01f6 10       		.byte	16
 535 01f7 00       		.byte	0
 536 01f8 1F       		.byte	31
 537 01f9 22       		.byte	34
 538 01fa 22       		.byte	34
 539 01fb 20       		.byte	32
 540 01fc 10       		.byte	16
 541 01fd 00       		.byte	0
 542 01fe 1E       		.byte	30
 543 01ff 20       		.byte	32
 544 0200 20       		.byte	32
 545 0201 20       		.byte	32
 546 0202 1E       		.byte	30
 547 0203 00       		.byte	0
 548 0204 0E       		.byte	14
 549 0205 10       		.byte	16
 550 0206 20       		.byte	32
 551 0207 10       		.byte	16
 552 0208 0E       		.byte	14
 553 0209 00       		.byte	0
 554 020a 1E       		.byte	30
 555 020b 20       		.byte	32
 556 020c 10       		.byte	16
 557 020d 20       		.byte	32
 558 020e 1E       		.byte	30
 559 020f 00       		.byte	0
 560 0210 22       		.byte	34
 561 0211 14       		.byte	20
 562 0212 08       		.byte	8
 563 0213 14       		.byte	20
 564 0214 22       		.byte	34
 565 0215 00       		.byte	0
 566 0216 0E       		.byte	14
 567 0217 50       		.byte	80
 568 0218 50       		.byte	80
 569 0219 50       		.byte	80
 570 021a 3E       		.byte	62
 571 021b 00       		.byte	0
 572 021c 22       		.byte	34
 573 021d 32       		.byte	50
 574 021e 2A       		.byte	42
 575 021f 26       		.byte	38
 576 0220 22       		.byte	34
 577 0221 00       		.byte	0
 578 0222 00       		.byte	0
 579 0223 08       		.byte	8
 580 0224 36       		.byte	54
 581 0225 41       		.byte	65
 582 0226 00       		.byte	0
 583 0227 00       		.byte	0
 584 0228 00       		.byte	0
 585 0229 00       		.byte	0
 586 022a 7F       		.byte	127
 587 022b 00       		.byte	0
 588 022c 00       		.byte	0
 589 022d 00       		.byte	0
 590 022e 00       		.byte	0
 591 022f 41       		.byte	65
 592 0230 36       		.byte	54
 593 0231 08       		.byte	8
 594 0232 00       		.byte	0
 595 0233 00       		.byte	0
 596 0234 00       		.byte	0
 597 0235 02       		.byte	2
 598 0236 01       		.byte	1
 599 0237 02       		.byte	2
 600 0238 01       		.byte	1
 601 0239 00       		.byte	0
 602 023a 00       		.byte	0
 603 023b 00       		.byte	0
 604 023c 00       		.byte	0
 605 023d 00       		.byte	0
 606 023e 00       		.byte	0
 607 023f 00       		.byte	0
 608 0240 00       		.byte	0
 609 0241 00       		.byte	0
 610 0242 00       		.byte	0
 611 0243 00       		.byte	0
 612 0244 00       		.byte	0
 613 0245 00       		.byte	0
 614 0246 00       		.byte	0
 615 0247 00       		.byte	0
 616 0248 00       		.byte	0
 617 0249 00       		.byte	0
 618 024a 00       		.byte	0
 619 024b 00       		.byte	0
 620 024c 00       		.byte	0
 621 024d 00       		.byte	0
 622 024e 00       		.byte	0
 623 024f 00       		.byte	0
 624 0250 00       		.byte	0
 625 0251 00       		.byte	0
 626 0252 00       		.byte	0
 627 0253 00       		.byte	0
 628 0254 00       		.byte	0
 629 0255 00       		.byte	0
 630 0256 00       		.byte	0
 631 0257 00       		.byte	0
 632 0258 00       		.byte	0
 633 0259 00       		.byte	0
 634 025a 00       		.byte	0
 635 025b 00       		.byte	0
 636 025c 00       		.byte	0
 637 025d 00       		.byte	0
 638 025e 00       		.byte	0
 639 025f 00       		.byte	0
 640 0260 00       		.byte	0
 641 0261 00       		.byte	0
 642 0262 00       		.byte	0
 643 0263 00       		.byte	0
 644 0264 00       		.byte	0
 645 0265 00       		.byte	0
 646 0266 00       		.byte	0
 647 0267 00       		.byte	0
 648 0268 00       		.byte	0
 649 0269 00       		.byte	0
 650 026a 00       		.byte	0
 651 026b 00       		.byte	0
 652 026c 00       		.byte	0
 653 026d 00       		.byte	0
 654 026e 00       		.byte	0
 655 026f 00       		.byte	0
 656 0270 00       		.byte	0
 657 0271 00       		.byte	0
 658 0272 00       		.byte	0
 659 0273 00       		.byte	0
 660 0274 00       		.byte	0
 661 0275 00       		.byte	0
 662 0276 00       		.byte	0
 663 0277 00       		.byte	0
 664 0278 00       		.byte	0
 665 0279 00       		.byte	0
 666 027a 00       		.byte	0
 667 027b 00       		.byte	0
 668 027c 00       		.byte	0
 669 027d 00       		.byte	0
 670 027e 00       		.byte	0
 671 027f 00       		.byte	0
 672 0280 00       		.byte	0
 673 0281 00       		.byte	0
 674 0282 00       		.byte	0
 675 0283 00       		.byte	0
 676 0284 00       		.byte	0
 677 0285 00       		.byte	0
 678 0286 00       		.byte	0
 679 0287 00       		.byte	0
 680              		.section	.text.SSD1306_WriteCommand,"ax",%progbits
 681              		.align	1
 682              		.global	SSD1306_WriteCommand
 683              		.syntax unified
 684              		.thumb
 685              		.thumb_func
 686              		.fpu fpv4-sp-d16
 688              	SSD1306_WriteCommand:
 689              	.LFB125:
 690              		.file 1 "../Sources/i2c/SSD1306.c"
   1:../Sources/i2c/SSD1306.c **** /*
   2:../Sources/i2c/SSD1306.c ****  * SSD1306.c
   3:../Sources/i2c/SSD1306.c ****  *
   4:../Sources/i2c/SSD1306.c ****  *  Created on: 06.09.2017
   5:../Sources/i2c/SSD1306.c ****  *      Author: Dic
   6:../Sources/i2c/SSD1306.c ****  */
   7:../Sources/i2c/SSD1306.c **** 
   8:../Sources/i2c/SSD1306.c **** #include "platform.h"
   9:../Sources/i2c/SSD1306.c **** #include "SSD1306.h"
  10:../Sources/i2c/SSD1306.c **** #include "i2c.h"
  11:../Sources/i2c/SSD1306.c **** #include "util.h"
  12:../Sources/i2c/SSD1306.c **** 
  13:../Sources/i2c/SSD1306.c **** static uint8_t actCol = 0;
  14:../Sources/i2c/SSD1306.c **** static uint8_t actPage = 0;
  15:../Sources/i2c/SSD1306.c **** 
  16:../Sources/i2c/SSD1306.c **** /** Thin 5x8 font. */
  17:../Sources/i2c/SSD1306.c **** static unsigned char font[] = {
  18:../Sources/i2c/SSD1306.c **** 
  19:../Sources/i2c/SSD1306.c ****     0x0,  0x0,  0x0,  0x0,  0x0,  0x0,    // [0x20] ' '
  20:../Sources/i2c/SSD1306.c ****     0x0,  0x0,  0x2F,  0x0,  0x0,  0x0,    // [0x21] '!'
  21:../Sources/i2c/SSD1306.c ****     0x0,  0x3,  0x0,  0x3,  0x0,  0x0,    // [0x22] '"'
  22:../Sources/i2c/SSD1306.c ****     0x14,  0x3E,  0x14,  0x3E,  0x14,  0x0,    // [0x23] '#'
  23:../Sources/i2c/SSD1306.c ****     0x24,  0x2A,  0x7F,  0x2A,  0x12,  0x0,    // [0x24] '$'
  24:../Sources/i2c/SSD1306.c ****     0x22,  0x10,  0x8,  0x4,  0x22,  0x0,    // [0x25] '%'
  25:../Sources/i2c/SSD1306.c ****     0x18,  0x24,  0x24,  0x1E,  0x4,  0x0,    // [0x26] '&'
  26:../Sources/i2c/SSD1306.c ****     0x0,  0x0,  0x3,  0x0,  0x0,  0x0,    // [0x27] '''
  27:../Sources/i2c/SSD1306.c ****     0x0,  0x1C,  0x22,  0x41,  0x0,  0x0,    // [0x28] '('
  28:../Sources/i2c/SSD1306.c ****     0x0,  0x41,  0x22,  0x1C,  0x0,  0x0,    // [0x29] ')'
  29:../Sources/i2c/SSD1306.c ****     0x2A,  0x1C,  0x3E,  0x1C,  0x2A,  0x0,    // [0x2A] '*'
  30:../Sources/i2c/SSD1306.c ****     0x8,  0x8,  0x3E,  0x8,  0x8,  0x0,    // [0x2B] '+'
  31:../Sources/i2c/SSD1306.c ****     0x0,  0x40,  0x20,  0x0,  0x0,  0x0,    // [0x2C] ','
  32:../Sources/i2c/SSD1306.c ****     0x8,  0x8,  0x8,  0x8,  0x8,  0x0,    // [0x2D] '-'
  33:../Sources/i2c/SSD1306.c ****     0x0,  0x0,  0x20,  0x0,  0x0,  0x0,    // [0x2E] '.'
  34:../Sources/i2c/SSD1306.c ****     0x0,  0xC0,  0x30,  0xC,  0x3,  0x0,    // [0x2F] '/'
  35:../Sources/i2c/SSD1306.c ****     0x1E,  0x29,  0x2D,  0x25,  0x1E,  0x0,    // [0x30] '0'
  36:../Sources/i2c/SSD1306.c ****     0x0,  0x22,  0x3F,  0x20,  0x0,  0x0,    // [0x31] '1'
  37:../Sources/i2c/SSD1306.c ****     0x32,  0x29,  0x29,  0x29,  0x26,  0x0,    // [0x32] '2'
  38:../Sources/i2c/SSD1306.c ****     0x12,  0x21,  0x29,  0x29,  0x16,  0x0,    // [0x33] '3'
  39:../Sources/i2c/SSD1306.c ****     0x7,  0x8,  0x8,  0x8,  0x3E,  0x0,    // [0x34] '4'
  40:../Sources/i2c/SSD1306.c ****     0x17,  0x25,  0x25,  0x25,  0x18,  0x0,    // [0x35] '5'
  41:../Sources/i2c/SSD1306.c ****     0x1E,  0x25,  0x25,  0x25,  0x18,  0x0,    // [0x36] '6'
  42:../Sources/i2c/SSD1306.c ****     0x1,  0x1,  0x9,  0x9,  0x3E,  0x0,    // [0x37] '7'
  43:../Sources/i2c/SSD1306.c ****     0x1A,  0x25,  0x25,  0x25,  0x1A,  0x0,    // [0x38] '8'
  44:../Sources/i2c/SSD1306.c ****     0x6,  0x9,  0x9,  0x9,  0x3E,  0x0,    // [0x39] '9'
  45:../Sources/i2c/SSD1306.c ****     0x0,  0x0,  0x22,  0x0,  0x0,  0x0,    // [0x3A] ':'
  46:../Sources/i2c/SSD1306.c ****     0x0,  0x40,  0x22,  0x0,  0x0,  0x0,    // [0x3B] ';'
  47:../Sources/i2c/SSD1306.c ****     0x0,  0x8,  0x14,  0x22,  0x41,  0x0,    // [0x3C] '<'
  48:../Sources/i2c/SSD1306.c ****     0x14,  0x14,  0x14,  0x14,  0x14,  0x0,    // [0x3D] '='
  49:../Sources/i2c/SSD1306.c ****     0x0,  0x41,  0x22,  0x14,  0x8,  0x0,    // [0x3E] '>'
  50:../Sources/i2c/SSD1306.c ****     0x2,  0x1,  0x29,  0x9,  0x6,  0x0,    // [0x3F] '?'
  51:../Sources/i2c/SSD1306.c ****     0x1E,  0x21,  0x2D,  0x2D,  0x6,  0x0,    // [0x40] '@'
  52:../Sources/i2c/SSD1306.c ****     0x3E,  0x11,  0x11,  0x11,  0x3E,  0x0,    // [0x41] 'A'
  53:../Sources/i2c/SSD1306.c ****     0x3E,  0x25,  0x25,  0x25,  0x1A,  0x0,    // [0x42] 'B'
  54:../Sources/i2c/SSD1306.c ****     0x1E,  0x21,  0x21,  0x21,  0x12,  0x0,    // [0x43] 'C'
  55:../Sources/i2c/SSD1306.c ****     0x3E,  0x21,  0x21,  0x22,  0x1C,  0x0,    // [0x44] 'D'
  56:../Sources/i2c/SSD1306.c ****     0x3F,  0x29,  0x29,  0x21,  0x21,  0x0,    // [0x45] 'E'
  57:../Sources/i2c/SSD1306.c ****     0x3F,  0x9,  0x9,  0x1,  0x1,  0x0,    // [0x46] 'F'
  58:../Sources/i2c/SSD1306.c ****     0x1E,  0x21,  0x29,  0x29,  0x1A,  0x0,    // [0x47] 'G'
  59:../Sources/i2c/SSD1306.c ****     0x3F,  0x8,  0x8,  0x8,  0x3F,  0x0,    // [0x48] 'H'
  60:../Sources/i2c/SSD1306.c ****     0x0,  0x21,  0x3F,  0x21,  0x0,  0x0,    // [0x49] 'I'
  61:../Sources/i2c/SSD1306.c ****     0x10,  0x20,  0x21,  0x21,  0x1F,  0x0,    // [0x4A] 'J'
  62:../Sources/i2c/SSD1306.c ****     0x3F,  0x8,  0xC,  0x12,  0x21,  0x0,    // [0x4B] 'K'
  63:../Sources/i2c/SSD1306.c ****     0x1F,  0x20,  0x20,  0x20,  0x20,  0x0,    // [0x4C] 'L'
  64:../Sources/i2c/SSD1306.c ****     0x3E,  0x1,  0x6,  0x1,  0x3E,  0x0,    // [0x4D] 'M'
  65:../Sources/i2c/SSD1306.c ****     0x3E,  0x1,  0x1,  0x2,  0x3C,  0x0,    // [0x4E] 'N'
  66:../Sources/i2c/SSD1306.c ****     0x1E,  0x21,  0x21,  0x21,  0x1E,  0x0,    // [0x4F] 'O'
  67:../Sources/i2c/SSD1306.c ****     0x3E,  0x11,  0x11,  0x11,  0xE,  0x0,    // [0x50] 'P'
  68:../Sources/i2c/SSD1306.c ****     0x1E,  0x21,  0x29,  0x71,  0x5E,  0x0,    // [0x51] 'Q'
  69:../Sources/i2c/SSD1306.c ****     0x3E,  0x9,  0x9,  0x9,  0x36,  0x0,    // [0x52] 'R'
  70:../Sources/i2c/SSD1306.c ****     0x12,  0x25,  0x25,  0x25,  0x18,  0x0,    // [0x53] 'S'
  71:../Sources/i2c/SSD1306.c ****     0x1,  0x1,  0x3F,  0x1,  0x1,  0x0,    // [0x54] 'T'
  72:../Sources/i2c/SSD1306.c ****     0x1F,  0x20,  0x20,  0x20,  0x1F,  0x0,    // [0x55] 'U'
  73:../Sources/i2c/SSD1306.c ****     0xF,  0x10,  0x20,  0x10,  0xF,  0x0,    // [0x56] 'V'
  74:../Sources/i2c/SSD1306.c ****     0x1F,  0x20,  0x18,  0x20,  0x1F,  0x0,    // [0x57] 'W'
  75:../Sources/i2c/SSD1306.c ****     0x31,  0xA,  0x4,  0xA,  0x31,  0x0,    // [0x58] 'X'
  76:../Sources/i2c/SSD1306.c ****     0x7,  0x28,  0x28,  0x28,  0x1F,  0x0,    // [0x59] 'Y'
  77:../Sources/i2c/SSD1306.c ****     0x31,  0x29,  0x25,  0x23,  0x21,  0x0,    // [0x5A] 'Z'
  78:../Sources/i2c/SSD1306.c ****     0x0,  0x7F,  0x41,  0x41,  0x0,  0x0,    // [0x5B] '['
  79:../Sources/i2c/SSD1306.c ****     0x0,  0x3,  0xC,  0x30,  0xC0,  0x0,    // [0x5C] '\\'
  80:../Sources/i2c/SSD1306.c ****     0x0,  0x41,  0x41,  0x7F,  0x0,  0x0,    // [0x5D] ']'
  81:../Sources/i2c/SSD1306.c ****     0x0,  0x2,  0x1,  0x2,  0x0,  0x0,    // [0x5E] '^'
  82:../Sources/i2c/SSD1306.c ****     0x40,  0x40,  0x40,  0x40,  0x40,  0x0,    // [0x5F] '_'
  83:../Sources/i2c/SSD1306.c ****     0x1,  0x2,  0x0,  0x0,  0x0,  0x0,    // [0x60] '`'
  84:../Sources/i2c/SSD1306.c ****     0x1C,  0x22,  0x22,  0x22,  0x3C,  0x0,    // [0x61] 'a'
  85:../Sources/i2c/SSD1306.c ****     0x1F,  0x22,  0x22,  0x22,  0x1C,  0x0,    // [0x62] 'b'
  86:../Sources/i2c/SSD1306.c ****     0x1C,  0x22,  0x22,  0x22,  0x20,  0x0,    // [0x63] 'c'
  87:../Sources/i2c/SSD1306.c ****     0x1C,  0x22,  0x22,  0x22,  0x1F,  0x0,    // [0x64] 'd'
  88:../Sources/i2c/SSD1306.c ****     0x1C,  0x2A,  0x2A,  0x2A,  0x4,  0x0,    // [0x65] 'e'
  89:../Sources/i2c/SSD1306.c ****     0x8,  0x7E,  0x9,  0x1,  0x1,  0x0,    // [0x66] 'f'
  90:../Sources/i2c/SSD1306.c ****     0xC,  0x52,  0x52,  0x52,  0x3C,  0x0,    // [0x67] 'g'
  91:../Sources/i2c/SSD1306.c ****     0x3F,  0x2,  0x2,  0x2,  0x3C,  0x0,    // [0x68] 'h'
  92:../Sources/i2c/SSD1306.c ****     0x0,  0x0,  0x3D,  0x0,  0x0,  0x0,    // [0x69] 'i'
  93:../Sources/i2c/SSD1306.c ****     0x20,  0x40,  0x40,  0x40,  0x3D,  0x0,    // [0x6A] 'j'
  94:../Sources/i2c/SSD1306.c ****     0x3F,  0x8,  0x8,  0x14,  0x22,  0x0,    // [0x6B] 'k'
  95:../Sources/i2c/SSD1306.c ****     0x0,  0x1F,  0x20,  0x20,  0x0,  0x0,    // [0x6C] 'l'
  96:../Sources/i2c/SSD1306.c ****     0x3C,  0x2,  0x4,  0x2,  0x3C,  0x0,    // [0x6D] 'm'
  97:../Sources/i2c/SSD1306.c ****     0x3C,  0x2,  0x2,  0x2,  0x3C,  0x0,    // [0x6E] 'n'
  98:../Sources/i2c/SSD1306.c ****     0x1C,  0x22,  0x22,  0x22,  0x1C,  0x0,    // [0x6F] 'o'
  99:../Sources/i2c/SSD1306.c ****     0x7C,  0x12,  0x12,  0x12,  0xC,  0x0,    // [0x70] 'p'
 100:../Sources/i2c/SSD1306.c ****     0xC,  0x12,  0x12,  0x12,  0x7E,  0x0,    // [0x71] 'q'
 101:../Sources/i2c/SSD1306.c ****     0x3C,  0x2,  0x2,  0x2,  0x4,  0x0,    // [0x72] 'r'
 102:../Sources/i2c/SSD1306.c ****     0x24,  0x2A,  0x2A,  0x2A,  0x10,  0x0,    // [0x73] 's'
 103:../Sources/i2c/SSD1306.c ****     0x1F,  0x22,  0x22,  0x20,  0x10,  0x0,    // [0x74] 't'
 104:../Sources/i2c/SSD1306.c ****     0x1E,  0x20,  0x20,  0x20,  0x1E,  0x0,    // [0x75] 'u'
 105:../Sources/i2c/SSD1306.c ****     0xE,  0x10,  0x20,  0x10,  0xE,  0x0,    // [0x76] 'v'
 106:../Sources/i2c/SSD1306.c ****     0x1E,  0x20,  0x10,  0x20,  0x1E,  0x0,    // [0x77] 'w'
 107:../Sources/i2c/SSD1306.c ****     0x22,  0x14,  0x8,  0x14,  0x22,  0x0,    // [0x78] 'x'
 108:../Sources/i2c/SSD1306.c ****     0xE,  0x50,  0x50,  0x50,  0x3E,  0x0,    // [0x79] 'y'
 109:../Sources/i2c/SSD1306.c ****     0x22,  0x32,  0x2A,  0x26,  0x22,  0x0,    // [0x7A] 'z'
 110:../Sources/i2c/SSD1306.c ****     0x0,  0x8,  0x36,  0x41,  0x0,  0x0,    // [0x7B] '{'
 111:../Sources/i2c/SSD1306.c ****     0x0,  0x0,  0x7F,  0x0,  0x0,  0x0,    // [0x7C] '|'
 112:../Sources/i2c/SSD1306.c ****     0x0,  0x41,  0x36,  0x8,  0x0,  0x0,    // [0x7D] '}'
 113:../Sources/i2c/SSD1306.c ****     0x0,  0x2,  0x1,  0x2,  0x1,  0x0,    // [0x7E] '~'
 114:../Sources/i2c/SSD1306.c ****     0x0,  0x0,  0x0,  0x0,  0x0,  0x0,    // [0x7F] ''
 115:../Sources/i2c/SSD1306.c ****     0x0,  0x0,  0x0,  0x0,  0x0,  0x0,    // [0x80] ''
 116:../Sources/i2c/SSD1306.c ****     0x0,  0x0,  0x0,  0x0,  0x0,  0x0,    // [0x81] ''
 117:../Sources/i2c/SSD1306.c ****     0x0,  0x0,  0x0,  0x0,  0x0,  0x0,    // [0x82] ''
 118:../Sources/i2c/SSD1306.c ****     0x0,  0x0,  0x0,  0x0,  0x0,  0x0,    // [0x83] ''
 119:../Sources/i2c/SSD1306.c ****     0x0,  0x0,  0x0,  0x0,  0x0,  0x0,    // [0x84] ''
 120:../Sources/i2c/SSD1306.c ****     0x0,  0x0,  0x0,  0x0,  0x0,  0x0,    // [0x85] ''
 121:../Sources/i2c/SSD1306.c ****     0x0,  0x0,  0x0,  0x0,  0x0,  0x0,    // [0x86] ''
 122:../Sources/i2c/SSD1306.c ****     0x0,  0x0,  0x0,  0x0,  0x0,  0x0,    // [0x87] ''
 123:../Sources/i2c/SSD1306.c ****     0x0,  0x0,  0x0,  0x0,  0x0,  0x0,    // [0x88] ''
 124:../Sources/i2c/SSD1306.c ****     0x0,  0x0,  0x0,  0x0,  0x0,  0x0,    // [0x89] ''
 125:../Sources/i2c/SSD1306.c ****     0x0,  0x0,  0x0,  0x0,  0x0,  0x0,    // [0x8A] ''
 126:../Sources/i2c/SSD1306.c ****     0x0,  0x0,  0x0,  0x0,  0x0,  0x0,    // [0x8B] ''
 127:../Sources/i2c/SSD1306.c **** };
 128:../Sources/i2c/SSD1306.c **** 
 129:../Sources/i2c/SSD1306.c **** #define SSD1306_CMD_REG		0x00
 130:../Sources/i2c/SSD1306.c **** #define SSD1306_DATA_REG	0x40
 131:../Sources/i2c/SSD1306.c **** 
 132:../Sources/i2c/SSD1306.c **** #define SSD1306_SET_CONTRAST 0x81
 133:../Sources/i2c/SSD1306.c **** #define SSD1306_DISPLAY_ALL_ON_RESUME 0xA4
 134:../Sources/i2c/SSD1306.c **** #define SSD1306_DISPLAY_ALL_ON 0xA5
 135:../Sources/i2c/SSD1306.c **** #define SSD1306_NORMAL_DISPLAY 0xA6
 136:../Sources/i2c/SSD1306.c **** #define SSD1306_INVERT_DISPLAY 0xA7
 137:../Sources/i2c/SSD1306.c **** #define SSD1306_DISPLAY_OFF 0xAE
 138:../Sources/i2c/SSD1306.c **** #define SSD1306_DISPLAY_ON 0xAF
 139:../Sources/i2c/SSD1306.c **** 
 140:../Sources/i2c/SSD1306.c **** #define SSD1306_SET_DISPLAY_OFFSET 0xD3
 141:../Sources/i2c/SSD1306.c **** #define SSD1306_SET_COM_PINS 0xDA
 142:../Sources/i2c/SSD1306.c **** 
 143:../Sources/i2c/SSD1306.c **** #define SSD1306_SET_VCOM_DETECT 0xDB
 144:../Sources/i2c/SSD1306.c **** 
 145:../Sources/i2c/SSD1306.c **** #define SSD1306_SET_DISPLAY_CLOCK_DIV 0xD5
 146:../Sources/i2c/SSD1306.c **** #define SSD1306_SET_PRECHARGE 0xD9
 147:../Sources/i2c/SSD1306.c **** 
 148:../Sources/i2c/SSD1306.c **** #define SSD1306_SET_MULTIPLEX 0xA8
 149:../Sources/i2c/SSD1306.c **** 
 150:../Sources/i2c/SSD1306.c **** #define SSD1306_SET_LOW_COLUMN 0x00
 151:../Sources/i2c/SSD1306.c **** #define SSD1306_SET_HIGH_COLUMN 0x10
 152:../Sources/i2c/SSD1306.c **** 
 153:../Sources/i2c/SSD1306.c **** #define SSD1306_SET_START_LINE 0x40
 154:../Sources/i2c/SSD1306.c **** 
 155:../Sources/i2c/SSD1306.c **** #define SSD1306_MEMORY_MODE 0x20
 156:../Sources/i2c/SSD1306.c **** #define SSD1306_COLUMN_ADDR 0x21
 157:../Sources/i2c/SSD1306.c **** #define SSD1306_PAGE_ADDR   0x22
 158:../Sources/i2c/SSD1306.c **** 
 159:../Sources/i2c/SSD1306.c **** #define SSD1306_COM_SCAN_INC 0xC0
 160:../Sources/i2c/SSD1306.c **** #define SSD1306_COM_SCAN_DEC 0xC8
 161:../Sources/i2c/SSD1306.c **** 
 162:../Sources/i2c/SSD1306.c **** #define SSD1306_SEG_REMAP 0xA0
 163:../Sources/i2c/SSD1306.c **** 
 164:../Sources/i2c/SSD1306.c **** #define SSD1306_CHARGE_PUMP 0x8D
 165:../Sources/i2c/SSD1306.c **** 
 166:../Sources/i2c/SSD1306.c **** #define SSD1306_EXTERNAL_VCC 0x1
 167:../Sources/i2c/SSD1306.c **** #define SSD1306_SWITCH_CAP_VCC 0x2
 168:../Sources/i2c/SSD1306.c **** 
 169:../Sources/i2c/SSD1306.c **** // Scrolling #defines
 170:../Sources/i2c/SSD1306.c **** #define SSD1306_ACTIVATE_SCROLL 0x2F
 171:../Sources/i2c/SSD1306.c **** #define SSD1306_DEACTIVATE_SCROLL 0x2E
 172:../Sources/i2c/SSD1306.c **** #define SSD1306_SET_VERTICAL_SCROLL_AREA 0xA3
 173:../Sources/i2c/SSD1306.c **** #define SSD1306_RIGHT_HORIZONTAL_SCROLL 0x26
 174:../Sources/i2c/SSD1306.c **** #define SSD1306_LEFT_HORIZONTAL_SCROLL 0x27
 175:../Sources/i2c/SSD1306.c **** #define SSD1306_VERTICAL_AND_RIGHT_HORIZONTAL_SCROLL 0x29
 176:../Sources/i2c/SSD1306.c **** #define SSD1306_VERTICAL_AND_LEFT_HORIZONTAL_SCROLL 0x2A
 177:../Sources/i2c/SSD1306.c **** 
 178:../Sources/i2c/SSD1306.c **** #ifdef SSD1306_128X64
 179:../Sources/i2c/SSD1306.c ****   #define SSD1306_LCDWIDTH                  128
 180:../Sources/i2c/SSD1306.c ****   #define SSD1306_LCDHEIGHT                 64
 181:../Sources/i2c/SSD1306.c **** #endif
 182:../Sources/i2c/SSD1306.c **** #ifdef SSD1306_128X32
 183:../Sources/i2c/SSD1306.c ****   #define SSD1306_LCDWIDTH                  128
 184:../Sources/i2c/SSD1306.c ****   #define SSD1306_LCDHEIGHT                 32
 185:../Sources/i2c/SSD1306.c **** #endif
 186:../Sources/i2c/SSD1306.c **** 
 187:../Sources/i2c/SSD1306.c **** #ifdef SSD1306_128X64
 188:../Sources/i2c/SSD1306.c **** 
 189:../Sources/i2c/SSD1306.c **** #define SSD1306_DISPLAY_HW_NOF_COLUMNS	128u /* number of columns in hardware */
 190:../Sources/i2c/SSD1306.c **** #define SSD1306_DISPLAY_HW_NOF_ROWS     64u /* number of rows in hardware */
 191:../Sources/i2c/SSD1306.c **** #define SSD1306_DISPLAY_HW_NOF_PAGES	8u
 192:../Sources/i2c/SSD1306.c **** 
 193:../Sources/i2c/SSD1306.c **** #elif SSD1306_128x32
 194:../Sources/i2c/SSD1306.c **** 
 195:../Sources/i2c/SSD1306.c **** #define SSD1306_DISPLAY_HW_NOF_COLUMNS	128u /* number of columns in hardware */
 196:../Sources/i2c/SSD1306.c **** #define SSD1306_DISPLAY_HW_NOF_ROWS     32u /* number of rows in hardware */
 197:../Sources/i2c/SSD1306.c **** #define SSD1306_DISPLAY_HW_NOF_PAGES	4u
 198:../Sources/i2c/SSD1306.c **** 
 199:../Sources/i2c/SSD1306.c **** #endif
 200:../Sources/i2c/SSD1306.c **** 
 201:../Sources/i2c/SSD1306.c **** void SSD1306_WriteCommand(uint8_t cmd){
 691              		.loc 1 201 0
 692              		.cfi_startproc
 693              		@ args = 0, pretend = 0, frame = 8
 694              		@ frame_needed = 1, uses_anonymous_args = 0
 695 0000 80B5     		push	{r7, lr}
 696              		.cfi_def_cfa_offset 8
 697              		.cfi_offset 7, -8
 698              		.cfi_offset 14, -4
 699 0002 82B0     		sub	sp, sp, #8
 700              		.cfi_def_cfa_offset 16
 701 0004 00AF     		add	r7, sp, #0
 702              		.cfi_def_cfa_register 7
 703 0006 0346     		mov	r3, r0
 704 0008 FB71     		strb	r3, [r7, #7]
 202:../Sources/i2c/SSD1306.c ****   i2cWriteCmdData(SSD1306_I2C_ADDR, SSD1306_CMD_REG, &cmd, 1);
 705              		.loc 1 202 0
 706 000a FA1D     		adds	r2, r7, #7
 707 000c 0123     		movs	r3, #1
 708 000e 0021     		movs	r1, #0
 709 0010 3C20     		movs	r0, #60
 710 0012 FFF7FEFF 		bl	i2cWriteCmdData
 203:../Sources/i2c/SSD1306.c **** 	//GI2C1_WriteByteAddress8(SSD1306_I2C_ADDR, SSD1306_CMD_REG, cmd);
 204:../Sources/i2c/SSD1306.c **** }
 711              		.loc 1 204 0
 712 0016 00BF     		nop
 713 0018 0837     		adds	r7, r7, #8
 714              		.cfi_def_cfa_offset 8
 715 001a BD46     		mov	sp, r7
 716              		.cfi_def_cfa_register 13
 717              		@ sp needed
 718 001c 80BD     		pop	{r7, pc}
 719              		.cfi_endproc
 720              	.LFE125:
 722              		.section	.text.SSD1306_WriteData,"ax",%progbits
 723              		.align	1
 724              		.global	SSD1306_WriteData
 725              		.syntax unified
 726              		.thumb
 727              		.thumb_func
 728              		.fpu fpv4-sp-d16
 730              	SSD1306_WriteData:
 731              	.LFB126:
 205:../Sources/i2c/SSD1306.c **** 
 206:../Sources/i2c/SSD1306.c **** void SSD1306_WriteData(uint8_t data){
 732              		.loc 1 206 0
 733              		.cfi_startproc
 734              		@ args = 0, pretend = 0, frame = 8
 735              		@ frame_needed = 1, uses_anonymous_args = 0
 736 0000 80B5     		push	{r7, lr}
 737              		.cfi_def_cfa_offset 8
 738              		.cfi_offset 7, -8
 739              		.cfi_offset 14, -4
 740 0002 82B0     		sub	sp, sp, #8
 741              		.cfi_def_cfa_offset 16
 742 0004 00AF     		add	r7, sp, #0
 743              		.cfi_def_cfa_register 7
 744 0006 0346     		mov	r3, r0
 745 0008 FB71     		strb	r3, [r7, #7]
 207:../Sources/i2c/SSD1306.c ****   i2cWriteCmdData(SSD1306_I2C_ADDR, SSD1306_DATA_REG, &data, 1);
 746              		.loc 1 207 0
 747 000a FA1D     		adds	r2, r7, #7
 748 000c 0123     		movs	r3, #1
 749 000e 4021     		movs	r1, #64
 750 0010 3C20     		movs	r0, #60
 751 0012 FFF7FEFF 		bl	i2cWriteCmdData
 208:../Sources/i2c/SSD1306.c **** 	//GI2C1_WriteByteAddress8(SSD1306_I2C_ADDR, SSD1306_DATA_REG, data);
 209:../Sources/i2c/SSD1306.c **** }
 752              		.loc 1 209 0
 753 0016 00BF     		nop
 754 0018 0837     		adds	r7, r7, #8
 755              		.cfi_def_cfa_offset 8
 756 001a BD46     		mov	sp, r7
 757              		.cfi_def_cfa_register 13
 758              		@ sp needed
 759 001c 80BD     		pop	{r7, pc}
 760              		.cfi_endproc
 761              	.LFE126:
 763              		.section	.text.SSD1306_Init,"ax",%progbits
 764              		.align	1
 765              		.global	SSD1306_Init
 766              		.syntax unified
 767              		.thumb
 768              		.thumb_func
 769              		.fpu fpv4-sp-d16
 771              	SSD1306_Init:
 772              	.LFB127:
 210:../Sources/i2c/SSD1306.c **** 
 211:../Sources/i2c/SSD1306.c **** void SSD1306_Init(void){
 773              		.loc 1 211 0
 774              		.cfi_startproc
 775              		@ args = 0, pretend = 0, frame = 0
 776              		@ frame_needed = 1, uses_anonymous_args = 0
 777 0000 80B5     		push	{r7, lr}
 778              		.cfi_def_cfa_offset 8
 779              		.cfi_offset 7, -8
 780              		.cfi_offset 14, -4
 781 0002 00AF     		add	r7, sp, #0
 782              		.cfi_def_cfa_register 7
 212:../Sources/i2c/SSD1306.c **** 
 213:../Sources/i2c/SSD1306.c ****   PORTE_PCR26 = PORT_PCR_MUX(1);
 783              		.loc 1 213 0
 784 0004 3B4B     		ldr	r3, .L4
 785 0006 4FF48072 		mov	r2, #256
 786 000a 9A66     		str	r2, [r3, #104]
 214:../Sources/i2c/SSD1306.c ****   GPIOE_PDDR |= (1<<26);
 787              		.loc 1 214 0
 788 000c 3A4A     		ldr	r2, .L4+4
 789 000e 3A4B     		ldr	r3, .L4+4
 790 0010 5B69     		ldr	r3, [r3, #20]
 791 0012 43F08063 		orr	r3, r3, #67108864
 792 0016 5361     		str	r3, [r2, #20]
 215:../Sources/i2c/SSD1306.c ****   GPIOE_PCOR = (1<<26);
 793              		.loc 1 215 0
 794 0018 374B     		ldr	r3, .L4+4
 795 001a 4FF08062 		mov	r2, #67108864
 796 001e 9A60     		str	r2, [r3, #8]
 216:../Sources/i2c/SSD1306.c ****   utilWaitUs(1000);
 797              		.loc 1 216 0
 798 0020 4FF47A70 		mov	r0, #1000
 799 0024 FFF7FEFF 		bl	utilWaitUs
 217:../Sources/i2c/SSD1306.c ****   GPIOE_PSOR = (1<<26);
 800              		.loc 1 217 0
 801 0028 334B     		ldr	r3, .L4+4
 802 002a 4FF08062 		mov	r2, #67108864
 803 002e 5A60     		str	r2, [r3, #4]
 218:../Sources/i2c/SSD1306.c **** 
 219:../Sources/i2c/SSD1306.c **** 	SSD1306_WriteCommand(SSD1306_DISPLAY_OFF);				// turn of display
 804              		.loc 1 219 0
 805 0030 AE20     		movs	r0, #174
 806 0032 FFF7FEFF 		bl	SSD1306_WriteCommand
 220:../Sources/i2c/SSD1306.c **** 	SSD1306_WriteCommand(SSD1306_SET_DISPLAY_CLOCK_DIV);	// set display clock divide ratio/oscillator 
 807              		.loc 1 220 0
 808 0036 D520     		movs	r0, #213
 809 0038 FFF7FEFF 		bl	SSD1306_WriteCommand
 221:../Sources/i2c/SSD1306.c **** 	SSD1306_WriteCommand(0x80);								// the suggested ratio 0x80
 810              		.loc 1 221 0
 811 003c 8020     		movs	r0, #128
 812 003e FFF7FEFF 		bl	SSD1306_WriteCommand
 222:../Sources/i2c/SSD1306.c **** 
 223:../Sources/i2c/SSD1306.c **** 	SSD1306_WriteCommand(SSD1306_SET_MULTIPLEX);			// set multiplex ratio(1 to 64)
 813              		.loc 1 223 0
 814 0042 A820     		movs	r0, #168
 815 0044 FFF7FEFF 		bl	SSD1306_WriteCommand
 224:../Sources/i2c/SSD1306.c **** #ifdef SSD1306_128X64
 225:../Sources/i2c/SSD1306.c **** 	SSD1306_WriteCommand(0x3F);								// the suggested 1/64 duty
 816              		.loc 1 225 0
 817 0048 3F20     		movs	r0, #63
 818 004a FFF7FEFF 		bl	SSD1306_WriteCommand
 226:../Sources/i2c/SSD1306.c **** #else
 227:../Sources/i2c/SSD1306.c **** 	SSD1306_WriteCommand(0x1F);
 228:../Sources/i2c/SSD1306.c **** #endif
 229:../Sources/i2c/SSD1306.c **** 
 230:../Sources/i2c/SSD1306.c **** 	SSD1306_WriteCommand(SSD1306_SET_DISPLAY_OFFSET);		// set display offset
 819              		.loc 1 230 0
 820 004e D320     		movs	r0, #211
 821 0050 FFF7FEFF 		bl	SSD1306_WriteCommand
 231:../Sources/i2c/SSD1306.c **** 	SSD1306_WriteCommand(0x00);								// no offset
 822              		.loc 1 231 0
 823 0054 0020     		movs	r0, #0
 824 0056 FFF7FEFF 		bl	SSD1306_WriteCommand
 232:../Sources/i2c/SSD1306.c **** 	SSD1306_WriteCommand(SSD1306_SET_START_LINE | 0x00);	// set start line address
 825              		.loc 1 232 0
 826 005a 4020     		movs	r0, #64
 827 005c FFF7FEFF 		bl	SSD1306_WriteCommand
 233:../Sources/i2c/SSD1306.c **** 
 234:../Sources/i2c/SSD1306.c **** 	SSD1306_WriteCommand(SSD1306_COLUMN_ADDR);				// set start and end address of the columns
 828              		.loc 1 234 0
 829 0060 2120     		movs	r0, #33
 830 0062 FFF7FEFF 		bl	SSD1306_WriteCommand
 235:../Sources/i2c/SSD1306.c **** 	SSD1306_WriteCommand(0);
 831              		.loc 1 235 0
 832 0066 0020     		movs	r0, #0
 833 0068 FFF7FEFF 		bl	SSD1306_WriteCommand
 236:../Sources/i2c/SSD1306.c **** 	SSD1306_WriteCommand(SSD1306_DISPLAY_HW_NOF_COLUMNS-1);
 834              		.loc 1 236 0
 835 006c 7F20     		movs	r0, #127
 836 006e FFF7FEFF 		bl	SSD1306_WriteCommand
 237:../Sources/i2c/SSD1306.c **** 
 238:../Sources/i2c/SSD1306.c **** 	SSD1306_WriteCommand(SSD1306_PAGE_ADDR);				// set start and end address of the pages
 837              		.loc 1 238 0
 838 0072 2220     		movs	r0, #34
 839 0074 FFF7FEFF 		bl	SSD1306_WriteCommand
 239:../Sources/i2c/SSD1306.c **** 	SSD1306_WriteCommand(0);
 840              		.loc 1 239 0
 841 0078 0020     		movs	r0, #0
 842 007a FFF7FEFF 		bl	SSD1306_WriteCommand
 240:../Sources/i2c/SSD1306.c **** 	SSD1306_WriteCommand(SSD1306_DISPLAY_HW_NOF_PAGES-1);
 843              		.loc 1 240 0
 844 007e 0720     		movs	r0, #7
 845 0080 FFF7FEFF 		bl	SSD1306_WriteCommand
 241:../Sources/i2c/SSD1306.c **** 
 242:../Sources/i2c/SSD1306.c **** 	SSD1306_WriteCommand(SSD1306_CHARGE_PUMP);				// set charge pump enable/disable
 846              		.loc 1 242 0
 847 0084 8D20     		movs	r0, #141
 848 0086 FFF7FEFF 		bl	SSD1306_WriteCommand
 243:../Sources/i2c/SSD1306.c **** #if SSD1306_EXTERNAL == 1
 244:../Sources/i2c/SSD1306.c **** 	SSD1306_WriteCommand(0x10);								// set to disabled
 245:../Sources/i2c/SSD1306.c **** #else
 246:../Sources/i2c/SSD1306.c **** 	SSD1306_WriteCommand(0x14);								// set to enabled
 849              		.loc 1 246 0
 850 008a 1420     		movs	r0, #20
 851 008c FFF7FEFF 		bl	SSD1306_WriteCommand
 247:../Sources/i2c/SSD1306.c **** #endif
 248:../Sources/i2c/SSD1306.c **** 
 249:../Sources/i2c/SSD1306.c **** 	SSD1306_WriteCommand(SSD1306_MEMORY_MODE);				// set memory mode
 852              		.loc 1 249 0
 853 0090 2020     		movs	r0, #32
 854 0092 FFF7FEFF 		bl	SSD1306_WriteCommand
 250:../Sources/i2c/SSD1306.c **** 	SSD1306_WriteCommand(0x00);
 855              		.loc 1 250 0
 856 0096 0020     		movs	r0, #0
 857 0098 FFF7FEFF 		bl	SSD1306_WriteCommand
 251:../Sources/i2c/SSD1306.c **** 
 252:../Sources/i2c/SSD1306.c **** 	SSD1306_WriteCommand(SSD1306_SEG_REMAP | 0x01);			// set segment re-map 128 to 0
 858              		.loc 1 252 0
 859 009c A120     		movs	r0, #161
 860 009e FFF7FEFF 		bl	SSD1306_WriteCommand
 253:../Sources/i2c/SSD1306.c **** 	SSD1306_WriteCommand(SSD1306_COM_SCAN_DEC);				// set COM output scan direction 64 to 0
 861              		.loc 1 253 0
 862 00a2 C820     		movs	r0, #200
 863 00a4 FFF7FEFF 		bl	SSD1306_WriteCommand
 254:../Sources/i2c/SSD1306.c **** 	SSD1306_WriteCommand(SSD1306_SET_COM_PINS);				// set COM pins hardware configuration
 864              		.loc 1 254 0
 865 00a8 DA20     		movs	r0, #218
 866 00aa FFF7FEFF 		bl	SSD1306_WriteCommand
 255:../Sources/i2c/SSD1306.c **** #ifdef SSD1306_128X64
 256:../Sources/i2c/SSD1306.c **** 	SSD1306_WriteCommand(0x12);								// the suggested 1/64 duty
 867              		.loc 1 256 0
 868 00ae 1220     		movs	r0, #18
 869 00b0 FFF7FEFF 		bl	SSD1306_WriteCommand
 257:../Sources/i2c/SSD1306.c **** #else
 258:../Sources/i2c/SSD1306.c **** 	SSD1306_WriteCommand(0x02);
 259:../Sources/i2c/SSD1306.c **** #endif
 260:../Sources/i2c/SSD1306.c **** 
 261:../Sources/i2c/SSD1306.c **** 	SSD1306_WriteCommand(SSD1306_SET_CONTRAST);				// set contrast control register
 870              		.loc 1 261 0
 871 00b4 8120     		movs	r0, #129
 872 00b6 FFF7FEFF 		bl	SSD1306_WriteCommand
 262:../Sources/i2c/SSD1306.c **** #ifdef SSD1306_128X64
 263:../Sources/i2c/SSD1306.c **** #if SSD1306_EXTERNAL == 1
 264:../Sources/i2c/SSD1306.c **** 	SSD1306_WriteCommand(0x9F);
 265:../Sources/i2c/SSD1306.c **** #else
 266:../Sources/i2c/SSD1306.c **** 	SSD1306_WriteCommand(0xCF);
 873              		.loc 1 266 0
 874 00ba CF20     		movs	r0, #207
 875 00bc FFF7FEFF 		bl	SSD1306_WriteCommand
 267:../Sources/i2c/SSD1306.c **** #endif
 268:../Sources/i2c/SSD1306.c **** #else
 269:../Sources/i2c/SSD1306.c **** 	SSD1306_WriteCommand(0x8F);
 270:../Sources/i2c/SSD1306.c **** #endif
 271:../Sources/i2c/SSD1306.c **** 	SSD1306_WriteCommand(SSD1306_SET_PRECHARGE);			// set pre-charge period
 876              		.loc 1 271 0
 877 00c0 D920     		movs	r0, #217
 878 00c2 FFF7FEFF 		bl	SSD1306_WriteCommand
 272:../Sources/i2c/SSD1306.c **** #if SSD1306_EXTERNAL == 1
 273:../Sources/i2c/SSD1306.c **** 	SSD1306_WriteCommand(0x22);
 274:../Sources/i2c/SSD1306.c **** #else
 275:../Sources/i2c/SSD1306.c **** 	SSD1306_WriteCommand(0xF1);
 879              		.loc 1 275 0
 880 00c6 F120     		movs	r0, #241
 881 00c8 FFF7FEFF 		bl	SSD1306_WriteCommand
 276:../Sources/i2c/SSD1306.c **** #endif
 277:../Sources/i2c/SSD1306.c **** 	SSD1306_WriteCommand(0xF1);
 882              		.loc 1 277 0
 883 00cc F120     		movs	r0, #241
 884 00ce FFF7FEFF 		bl	SSD1306_WriteCommand
 278:../Sources/i2c/SSD1306.c **** 	SSD1306_WriteCommand(SSD1306_SET_VCOM_DETECT);			// set vcomh
 885              		.loc 1 278 0
 886 00d2 DB20     		movs	r0, #219
 887 00d4 FFF7FEFF 		bl	SSD1306_WriteCommand
 279:../Sources/i2c/SSD1306.c **** 	SSD1306_WriteCommand(0x40);
 888              		.loc 1 279 0
 889 00d8 4020     		movs	r0, #64
 890 00da FFF7FEFF 		bl	SSD1306_WriteCommand
 280:../Sources/i2c/SSD1306.c **** 
 281:../Sources/i2c/SSD1306.c **** 	SSD1306_WriteCommand(SSD1306_DISPLAY_ALL_ON_RESUME);	// disable entire display on
 891              		.loc 1 281 0
 892 00de A420     		movs	r0, #164
 893 00e0 FFF7FEFF 		bl	SSD1306_WriteCommand
 282:../Sources/i2c/SSD1306.c **** 	SSD1306_WriteCommand(SSD1306_NORMAL_DISPLAY);			// set normal display
 894              		.loc 1 282 0
 895 00e4 A620     		movs	r0, #166
 896 00e6 FFF7FEFF 		bl	SSD1306_WriteCommand
 283:../Sources/i2c/SSD1306.c **** 	SSD1306_WriteCommand(SSD1306_DISPLAY_ON);				// turn on oled panel
 897              		.loc 1 283 0
 898 00ea AF20     		movs	r0, #175
 899 00ec FFF7FEFF 		bl	SSD1306_WriteCommand
 284:../Sources/i2c/SSD1306.c **** }
 900              		.loc 1 284 0
 901 00f0 00BF     		nop
 902 00f2 80BD     		pop	{r7, pc}
 903              	.L5:
 904              		.align	2
 905              	.L4:
 906 00f4 00D00440 		.word	1074057216
 907 00f8 00F10F40 		.word	1074786560
 908              		.cfi_endproc
 909              	.LFE127:
 911              		.section	.text.SSD1306_Clear,"ax",%progbits
 912              		.align	1
 913              		.global	SSD1306_Clear
 914              		.syntax unified
 915              		.thumb
 916              		.thumb_func
 917              		.fpu fpv4-sp-d16
 919              	SSD1306_Clear:
 920              	.LFB128:
 285:../Sources/i2c/SSD1306.c **** 
 286:../Sources/i2c/SSD1306.c **** // is there a better way ?
 287:../Sources/i2c/SSD1306.c **** void SSD1306_Clear(void){
 921              		.loc 1 287 0
 922              		.cfi_startproc
 923              		@ args = 0, pretend = 0, frame = 8
 924              		@ frame_needed = 1, uses_anonymous_args = 0
 925 0000 80B5     		push	{r7, lr}
 926              		.cfi_def_cfa_offset 8
 927              		.cfi_offset 7, -8
 928              		.cfi_offset 14, -4
 929 0002 82B0     		sub	sp, sp, #8
 930              		.cfi_def_cfa_offset 16
 931 0004 00AF     		add	r7, sp, #0
 932              		.cfi_def_cfa_register 7
 933              	.LBB2:
 288:../Sources/i2c/SSD1306.c **** 	for(uint8_t page = 0 ; page < SSD1306_DISPLAY_HW_NOF_PAGES; page++)
 934              		.loc 1 288 0
 935 0006 0023     		movs	r3, #0
 936 0008 FB71     		strb	r3, [r7, #7]
 937 000a 16E0     		b	.L7
 938              	.L10:
 289:../Sources/i2c/SSD1306.c **** 	{
 290:../Sources/i2c/SSD1306.c **** 		SSD1306_SetPageStartAddr(page);
 939              		.loc 1 290 0
 940 000c FB79     		ldrb	r3, [r7, #7]	@ zero_extendqisi2
 941 000e 1846     		mov	r0, r3
 942 0010 FFF7FEFF 		bl	SSD1306_SetPageStartAddr
 291:../Sources/i2c/SSD1306.c **** 		SSD1306_SetColStartAddr(0);
 943              		.loc 1 291 0
 944 0014 0020     		movs	r0, #0
 945 0016 FFF7FEFF 		bl	SSD1306_SetColStartAddr
 946              	.LBB3:
 292:../Sources/i2c/SSD1306.c **** 		for(uint8_t col  = 0 ; col < SSD1306_DISPLAY_HW_NOF_COLUMNS ; col++)
 947              		.loc 1 292 0
 948 001a 0023     		movs	r3, #0
 949 001c BB71     		strb	r3, [r7, #6]
 950 001e 05E0     		b	.L8
 951              	.L9:
 293:../Sources/i2c/SSD1306.c **** 		{
 294:../Sources/i2c/SSD1306.c **** 			SSD1306_WriteData(0x00);
 952              		.loc 1 294 0 discriminator 3
 953 0020 0020     		movs	r0, #0
 954 0022 FFF7FEFF 		bl	SSD1306_WriteData
 292:../Sources/i2c/SSD1306.c **** 		for(uint8_t col  = 0 ; col < SSD1306_DISPLAY_HW_NOF_COLUMNS ; col++)
 955              		.loc 1 292 0 discriminator 3
 956 0026 BB79     		ldrb	r3, [r7, #6]	@ zero_extendqisi2
 957 0028 0133     		adds	r3, r3, #1
 958 002a BB71     		strb	r3, [r7, #6]
 959              	.L8:
 292:../Sources/i2c/SSD1306.c **** 		for(uint8_t col  = 0 ; col < SSD1306_DISPLAY_HW_NOF_COLUMNS ; col++)
 960              		.loc 1 292 0 is_stmt 0 discriminator 1
 961 002c 97F90630 		ldrsb	r3, [r7, #6]
 962 0030 002B     		cmp	r3, #0
 963 0032 F5DA     		bge	.L9
 964              	.LBE3:
 288:../Sources/i2c/SSD1306.c **** 	{
 965              		.loc 1 288 0 is_stmt 1 discriminator 2
 966 0034 FB79     		ldrb	r3, [r7, #7]	@ zero_extendqisi2
 967 0036 0133     		adds	r3, r3, #1
 968 0038 FB71     		strb	r3, [r7, #7]
 969              	.L7:
 288:../Sources/i2c/SSD1306.c **** 	{
 970              		.loc 1 288 0 is_stmt 0 discriminator 1
 971 003a FB79     		ldrb	r3, [r7, #7]	@ zero_extendqisi2
 972 003c 072B     		cmp	r3, #7
 973 003e E5D9     		bls	.L10
 974              	.LBE2:
 295:../Sources/i2c/SSD1306.c **** 		}
 296:../Sources/i2c/SSD1306.c **** 	}
 297:../Sources/i2c/SSD1306.c **** 	actPage = 0;
 975              		.loc 1 297 0 is_stmt 1
 976 0040 044B     		ldr	r3, .L11
 977 0042 0022     		movs	r2, #0
 978 0044 1A70     		strb	r2, [r3]
 298:../Sources/i2c/SSD1306.c **** 	actCol = 0;
 979              		.loc 1 298 0
 980 0046 044B     		ldr	r3, .L11+4
 981 0048 0022     		movs	r2, #0
 982 004a 1A70     		strb	r2, [r3]
 299:../Sources/i2c/SSD1306.c **** }
 983              		.loc 1 299 0
 984 004c 00BF     		nop
 985 004e 0837     		adds	r7, r7, #8
 986              		.cfi_def_cfa_offset 8
 987 0050 BD46     		mov	sp, r7
 988              		.cfi_def_cfa_register 13
 989              		@ sp needed
 990 0052 80BD     		pop	{r7, pc}
 991              	.L12:
 992              		.align	2
 993              	.L11:
 994 0054 00000000 		.word	actPage
 995 0058 00000000 		.word	actCol
 996              		.cfi_endproc
 997              	.LFE128:
 999              		.section	.text.SSD1306_InvertDisplay,"ax",%progbits
 1000              		.align	1
 1001              		.global	SSD1306_InvertDisplay
 1002              		.syntax unified
 1003              		.thumb
 1004              		.thumb_func
 1005              		.fpu fpv4-sp-d16
 1007              	SSD1306_InvertDisplay:
 1008              	.LFB129:
 300:../Sources/i2c/SSD1306.c **** 
 301:../Sources/i2c/SSD1306.c **** void SSD1306_InvertDisplay(bool invert){
 1009              		.loc 1 301 0
 1010              		.cfi_startproc
 1011              		@ args = 0, pretend = 0, frame = 8
 1012              		@ frame_needed = 1, uses_anonymous_args = 0
 1013 0000 80B5     		push	{r7, lr}
 1014              		.cfi_def_cfa_offset 8
 1015              		.cfi_offset 7, -8
 1016              		.cfi_offset 14, -4
 1017 0002 82B0     		sub	sp, sp, #8
 1018              		.cfi_def_cfa_offset 16
 1019 0004 00AF     		add	r7, sp, #0
 1020              		.cfi_def_cfa_register 7
 1021 0006 0346     		mov	r3, r0
 1022 0008 FB71     		strb	r3, [r7, #7]
 302:../Sources/i2c/SSD1306.c **** 	if(invert) SSD1306_WriteCommand(SSD1306_INVERT_DISPLAY);
 1023              		.loc 1 302 0
 1024 000a 97F90730 		ldrsb	r3, [r7, #7]
 1025 000e 002B     		cmp	r3, #0
 1026 0010 03D0     		beq	.L14
 1027              		.loc 1 302 0 is_stmt 0 discriminator 1
 1028 0012 A720     		movs	r0, #167
 1029 0014 FFF7FEFF 		bl	SSD1306_WriteCommand
 303:../Sources/i2c/SSD1306.c **** 	else SSD1306_WriteCommand(SSD1306_NORMAL_DISPLAY);
 304:../Sources/i2c/SSD1306.c **** }
 1030              		.loc 1 304 0 is_stmt 1 discriminator 1
 1031 0018 02E0     		b	.L16
 1032              	.L14:
 303:../Sources/i2c/SSD1306.c **** 	else SSD1306_WriteCommand(SSD1306_NORMAL_DISPLAY);
 1033              		.loc 1 303 0
 1034 001a A620     		movs	r0, #166
 1035 001c FFF7FEFF 		bl	SSD1306_WriteCommand
 1036              	.L16:
 1037              		.loc 1 304 0
 1038 0020 00BF     		nop
 1039 0022 0837     		adds	r7, r7, #8
 1040              		.cfi_def_cfa_offset 8
 1041 0024 BD46     		mov	sp, r7
 1042              		.cfi_def_cfa_register 13
 1043              		@ sp needed
 1044 0026 80BD     		pop	{r7, pc}
 1045              		.cfi_endproc
 1046              	.LFE129:
 1048              		.section	.text.SSD1306_SetColStartAddr,"ax",%progbits
 1049              		.align	1
 1050              		.global	SSD1306_SetColStartAddr
 1051              		.syntax unified
 1052              		.thumb
 1053              		.thumb_func
 1054              		.fpu fpv4-sp-d16
 1056              	SSD1306_SetColStartAddr:
 1057              	.LFB130:
 305:../Sources/i2c/SSD1306.c **** 
 306:../Sources/i2c/SSD1306.c **** void SSD1306_SetColStartAddr(uint8_t col){
 1058              		.loc 1 306 0
 1059              		.cfi_startproc
 1060              		@ args = 0, pretend = 0, frame = 8
 1061              		@ frame_needed = 1, uses_anonymous_args = 0
 1062 0000 80B5     		push	{r7, lr}
 1063              		.cfi_def_cfa_offset 8
 1064              		.cfi_offset 7, -8
 1065              		.cfi_offset 14, -4
 1066 0002 82B0     		sub	sp, sp, #8
 1067              		.cfi_def_cfa_offset 16
 1068 0004 00AF     		add	r7, sp, #0
 1069              		.cfi_def_cfa_register 7
 1070 0006 0346     		mov	r3, r0
 1071 0008 FB71     		strb	r3, [r7, #7]
 307:../Sources/i2c/SSD1306.c **** 	actCol = col;
 1072              		.loc 1 307 0
 1073 000a 0F4A     		ldr	r2, .L21
 1074 000c FB79     		ldrb	r3, [r7, #7]
 1075 000e 1370     		strb	r3, [r2]
 308:../Sources/i2c/SSD1306.c **** 	if(	actCol >= SSD1306_DISPLAY_HW_NOF_COLUMNS) return;
 1076              		.loc 1 308 0
 1077 0010 0D4B     		ldr	r3, .L21
 1078 0012 1B78     		ldrb	r3, [r3]	@ zero_extendqisi2
 1079 0014 5BB2     		sxtb	r3, r3
 1080 0016 002B     		cmp	r3, #0
 1081 0018 12DB     		blt	.L20
 309:../Sources/i2c/SSD1306.c **** 	SSD1306_WriteCommand(0x10 | (	actCol>>4));
 1082              		.loc 1 309 0
 1083 001a 0B4B     		ldr	r3, .L21
 1084 001c 1B78     		ldrb	r3, [r3]	@ zero_extendqisi2
 1085 001e 1B09     		lsrs	r3, r3, #4
 1086 0020 DBB2     		uxtb	r3, r3
 1087 0022 43F01003 		orr	r3, r3, #16
 1088 0026 DBB2     		uxtb	r3, r3
 1089 0028 1846     		mov	r0, r3
 1090 002a FFF7FEFF 		bl	SSD1306_WriteCommand
 310:../Sources/i2c/SSD1306.c **** 	SSD1306_WriteCommand(	actCol & 0x0F);
 1091              		.loc 1 310 0
 1092 002e 064B     		ldr	r3, .L21
 1093 0030 1B78     		ldrb	r3, [r3]	@ zero_extendqisi2
 1094 0032 03F00F03 		and	r3, r3, #15
 1095 0036 DBB2     		uxtb	r3, r3
 1096 0038 1846     		mov	r0, r3
 1097 003a FFF7FEFF 		bl	SSD1306_WriteCommand
 1098 003e 00E0     		b	.L17
 1099              	.L20:
 308:../Sources/i2c/SSD1306.c **** 	if(	actCol >= SSD1306_DISPLAY_HW_NOF_COLUMNS) return;
 1100              		.loc 1 308 0
 1101 0040 00BF     		nop
 1102              	.L17:
 311:../Sources/i2c/SSD1306.c **** }
 1103              		.loc 1 311 0
 1104 0042 0837     		adds	r7, r7, #8
 1105              		.cfi_def_cfa_offset 8
 1106 0044 BD46     		mov	sp, r7
 1107              		.cfi_def_cfa_register 13
 1108              		@ sp needed
 1109 0046 80BD     		pop	{r7, pc}
 1110              	.L22:
 1111              		.align	2
 1112              	.L21:
 1113 0048 00000000 		.word	actCol
 1114              		.cfi_endproc
 1115              	.LFE130:
 1117              		.section	.text.SSD1306_SetPageStartAddr,"ax",%progbits
 1118              		.align	1
 1119              		.global	SSD1306_SetPageStartAddr
 1120              		.syntax unified
 1121              		.thumb
 1122              		.thumb_func
 1123              		.fpu fpv4-sp-d16
 1125              	SSD1306_SetPageStartAddr:
 1126              	.LFB131:
 312:../Sources/i2c/SSD1306.c **** 
 313:../Sources/i2c/SSD1306.c **** void SSD1306_SetPageStartAddr(uint8_t page){
 1127              		.loc 1 313 0
 1128              		.cfi_startproc
 1129              		@ args = 0, pretend = 0, frame = 8
 1130              		@ frame_needed = 1, uses_anonymous_args = 0
 1131 0000 80B5     		push	{r7, lr}
 1132              		.cfi_def_cfa_offset 8
 1133              		.cfi_offset 7, -8
 1134              		.cfi_offset 14, -4
 1135 0002 82B0     		sub	sp, sp, #8
 1136              		.cfi_def_cfa_offset 16
 1137 0004 00AF     		add	r7, sp, #0
 1138              		.cfi_def_cfa_register 7
 1139 0006 0346     		mov	r3, r0
 1140 0008 FB71     		strb	r3, [r7, #7]
 314:../Sources/i2c/SSD1306.c **** 	actPage = page;
 1141              		.loc 1 314 0
 1142 000a 0A4A     		ldr	r2, .L27
 1143 000c FB79     		ldrb	r3, [r7, #7]
 1144 000e 1370     		strb	r3, [r2]
 315:../Sources/i2c/SSD1306.c **** 	if(actPage >= SSD1306_DISPLAY_HW_NOF_PAGES) return;
 1145              		.loc 1 315 0
 1146 0010 084B     		ldr	r3, .L27
 1147 0012 1B78     		ldrb	r3, [r3]	@ zero_extendqisi2
 1148 0014 072B     		cmp	r3, #7
 1149 0016 08D8     		bhi	.L26
 316:../Sources/i2c/SSD1306.c **** 	SSD1306_WriteCommand(0xB0 | actPage);
 1150              		.loc 1 316 0
 1151 0018 064B     		ldr	r3, .L27
 1152 001a 1B78     		ldrb	r3, [r3]	@ zero_extendqisi2
 1153 001c 63F04F03 		orn	r3, r3, #79
 1154 0020 DBB2     		uxtb	r3, r3
 1155 0022 1846     		mov	r0, r3
 1156 0024 FFF7FEFF 		bl	SSD1306_WriteCommand
 1157 0028 00E0     		b	.L23
 1158              	.L26:
 315:../Sources/i2c/SSD1306.c **** 	if(actPage >= SSD1306_DISPLAY_HW_NOF_PAGES) return;
 1159              		.loc 1 315 0
 1160 002a 00BF     		nop
 1161              	.L23:
 317:../Sources/i2c/SSD1306.c **** }
 1162              		.loc 1 317 0
 1163 002c 0837     		adds	r7, r7, #8
 1164              		.cfi_def_cfa_offset 8
 1165 002e BD46     		mov	sp, r7
 1166              		.cfi_def_cfa_register 13
 1167              		@ sp needed
 1168 0030 80BD     		pop	{r7, pc}
 1169              	.L28:
 1170 0032 00BF     		.align	2
 1171              	.L27:
 1172 0034 00000000 		.word	actPage
 1173              		.cfi_endproc
 1174              	.LFE131:
 1176              		.section	.text.SSD1306_PrintChar,"ax",%progbits
 1177              		.align	1
 1178              		.global	SSD1306_PrintChar
 1179              		.syntax unified
 1180              		.thumb
 1181              		.thumb_func
 1182              		.fpu fpv4-sp-d16
 1184              	SSD1306_PrintChar:
 1185              	.LFB132:
 318:../Sources/i2c/SSD1306.c **** 
 319:../Sources/i2c/SSD1306.c **** void SSD1306_PrintChar(uint8_t ch){
 1186              		.loc 1 319 0
 1187              		.cfi_startproc
 1188              		@ args = 0, pretend = 0, frame = 16
 1189              		@ frame_needed = 1, uses_anonymous_args = 0
 1190 0000 80B5     		push	{r7, lr}
 1191              		.cfi_def_cfa_offset 8
 1192              		.cfi_offset 7, -8
 1193              		.cfi_offset 14, -4
 1194 0002 84B0     		sub	sp, sp, #16
 1195              		.cfi_def_cfa_offset 24
 1196 0004 00AF     		add	r7, sp, #0
 1197              		.cfi_def_cfa_register 7
 1198 0006 0346     		mov	r3, r0
 1199 0008 FB71     		strb	r3, [r7, #7]
 320:../Sources/i2c/SSD1306.c ****   if(ch == '\n') {
 1200              		.loc 1 320 0
 1201 000a FB79     		ldrb	r3, [r7, #7]	@ zero_extendqisi2
 1202 000c 0A2B     		cmp	r3, #10
 1203 000e 15D1     		bne	.L30
 321:../Sources/i2c/SSD1306.c ****     actPage++;
 1204              		.loc 1 321 0
 1205 0010 184B     		ldr	r3, .L36
 1206 0012 1B78     		ldrb	r3, [r3]	@ zero_extendqisi2
 1207 0014 0133     		adds	r3, r3, #1
 1208 0016 DAB2     		uxtb	r2, r3
 1209 0018 164B     		ldr	r3, .L36
 1210 001a 1A70     		strb	r2, [r3]
 322:../Sources/i2c/SSD1306.c ****     if(actPage >= SSD1306_DISPLAY_HW_NOF_PAGES) actPage=0;
 1211              		.loc 1 322 0
 1212 001c 154B     		ldr	r3, .L36
 1213 001e 1B78     		ldrb	r3, [r3]	@ zero_extendqisi2
 1214 0020 072B     		cmp	r3, #7
 1215 0022 02D9     		bls	.L31
 1216              		.loc 1 322 0 is_stmt 0 discriminator 1
 1217 0024 134B     		ldr	r3, .L36
 1218 0026 0022     		movs	r2, #0
 1219 0028 1A70     		strb	r2, [r3]
 1220              	.L31:
 323:../Sources/i2c/SSD1306.c ****     SSD1306_SetPageStartAddr(actPage);
 1221              		.loc 1 323 0 is_stmt 1
 1222 002a 124B     		ldr	r3, .L36
 1223 002c 1B78     		ldrb	r3, [r3]	@ zero_extendqisi2
 1224 002e 1846     		mov	r0, r3
 1225 0030 FFF7FEFF 		bl	SSD1306_SetPageStartAddr
 324:../Sources/i2c/SSD1306.c ****     SSD1306_SetColStartAddr(0);
 1226              		.loc 1 324 0
 1227 0034 0020     		movs	r0, #0
 1228 0036 FFF7FEFF 		bl	SSD1306_SetColStartAddr
 325:../Sources/i2c/SSD1306.c ****   }
 326:../Sources/i2c/SSD1306.c ****   else
 327:../Sources/i2c/SSD1306.c ****   {
 328:../Sources/i2c/SSD1306.c **** 	  for(uint8_t i = 0; i<6; i++)
 329:../Sources/i2c/SSD1306.c **** 	  {
 330:../Sources/i2c/SSD1306.c **** 	    SSD1306_WriteData(font[((ch-0x20)*6)+i]);
 331:../Sources/i2c/SSD1306.c **** 	  }
 332:../Sources/i2c/SSD1306.c ****   }
 333:../Sources/i2c/SSD1306.c **** }
 1229              		.loc 1 333 0
 1230 003a 17E0     		b	.L35
 1231              	.L30:
 1232              	.LBB4:
 328:../Sources/i2c/SSD1306.c **** 	  {
 1233              		.loc 1 328 0
 1234 003c 0023     		movs	r3, #0
 1235 003e FB73     		strb	r3, [r7, #15]
 1236 0040 11E0     		b	.L33
 1237              	.L34:
 330:../Sources/i2c/SSD1306.c **** 	  }
 1238              		.loc 1 330 0 discriminator 3
 1239 0042 FB79     		ldrb	r3, [r7, #7]	@ zero_extendqisi2
 1240 0044 A3F12002 		sub	r2, r3, #32
 1241 0048 1346     		mov	r3, r2
 1242 004a 5B00     		lsls	r3, r3, #1
 1243 004c 1344     		add	r3, r3, r2
 1244 004e 5B00     		lsls	r3, r3, #1
 1245 0050 1A46     		mov	r2, r3
 1246 0052 FB7B     		ldrb	r3, [r7, #15]	@ zero_extendqisi2
 1247 0054 1344     		add	r3, r3, r2
 1248 0056 084A     		ldr	r2, .L36+4
 1249 0058 D35C     		ldrb	r3, [r2, r3]	@ zero_extendqisi2
 1250 005a 1846     		mov	r0, r3
 1251 005c FFF7FEFF 		bl	SSD1306_WriteData
 328:../Sources/i2c/SSD1306.c **** 	  {
 1252              		.loc 1 328 0 discriminator 3
 1253 0060 FB7B     		ldrb	r3, [r7, #15]	@ zero_extendqisi2
 1254 0062 0133     		adds	r3, r3, #1
 1255 0064 FB73     		strb	r3, [r7, #15]
 1256              	.L33:
 328:../Sources/i2c/SSD1306.c **** 	  {
 1257              		.loc 1 328 0 is_stmt 0 discriminator 1
 1258 0066 FB7B     		ldrb	r3, [r7, #15]	@ zero_extendqisi2
 1259 0068 052B     		cmp	r3, #5
 1260 006a EAD9     		bls	.L34
 1261              	.L35:
 1262              	.LBE4:
 1263              		.loc 1 333 0 is_stmt 1
 1264 006c 00BF     		nop
 1265 006e 1037     		adds	r7, r7, #16
 1266              		.cfi_def_cfa_offset 8
 1267 0070 BD46     		mov	sp, r7
 1268              		.cfi_def_cfa_register 13
 1269              		@ sp needed
 1270 0072 80BD     		pop	{r7, pc}
 1271              	.L37:
 1272              		.align	2
 1273              	.L36:
 1274 0074 00000000 		.word	actPage
 1275 0078 00000000 		.word	font
 1276              		.cfi_endproc
 1277              	.LFE132:
 1279              		.section	.text.SSD1306_PrintString,"ax",%progbits
 1280              		.align	1
 1281              		.global	SSD1306_PrintString
 1282              		.syntax unified
 1283              		.thumb
 1284              		.thumb_func
 1285              		.fpu fpv4-sp-d16
 1287              	SSD1306_PrintString:
 1288              	.LFB133:
 334:../Sources/i2c/SSD1306.c **** 
 335:../Sources/i2c/SSD1306.c **** void SSD1306_PrintString(uint8_t *ch){
 1289              		.loc 1 335 0
 1290              		.cfi_startproc
 1291              		@ args = 0, pretend = 0, frame = 8
 1292              		@ frame_needed = 1, uses_anonymous_args = 0
 1293 0000 80B5     		push	{r7, lr}
 1294              		.cfi_def_cfa_offset 8
 1295              		.cfi_offset 7, -8
 1296              		.cfi_offset 14, -4
 1297 0002 82B0     		sub	sp, sp, #8
 1298              		.cfi_def_cfa_offset 16
 1299 0004 00AF     		add	r7, sp, #0
 1300              		.cfi_def_cfa_register 7
 1301 0006 7860     		str	r0, [r7, #4]
 336:../Sources/i2c/SSD1306.c **** 	while(*ch != '\0')
 1302              		.loc 1 336 0
 1303 0008 06E0     		b	.L39
 1304              	.L40:
 337:../Sources/i2c/SSD1306.c **** 	{
 338:../Sources/i2c/SSD1306.c **** 	  SSD1306_PrintChar(*ch++);
 1305              		.loc 1 338 0
 1306 000a 7B68     		ldr	r3, [r7, #4]
 1307 000c 5A1C     		adds	r2, r3, #1
 1308 000e 7A60     		str	r2, [r7, #4]
 1309 0010 1B78     		ldrb	r3, [r3]	@ zero_extendqisi2
 1310 0012 1846     		mov	r0, r3
 1311 0014 FFF7FEFF 		bl	SSD1306_PrintChar
 1312              	.L39:
 336:../Sources/i2c/SSD1306.c **** 	while(*ch != '\0')
 1313              		.loc 1 336 0
 1314 0018 7B68     		ldr	r3, [r7, #4]
 1315 001a 1B78     		ldrb	r3, [r3]	@ zero_extendqisi2
 1316 001c 002B     		cmp	r3, #0
 1317 001e F4D1     		bne	.L40
 339:../Sources/i2c/SSD1306.c **** 	}
 340:../Sources/i2c/SSD1306.c **** }
 1318              		.loc 1 340 0
 1319 0020 00BF     		nop
 1320 0022 0837     		adds	r7, r7, #8
 1321              		.cfi_def_cfa_offset 8
 1322 0024 BD46     		mov	sp, r7
 1323              		.cfi_def_cfa_register 13
 1324              		@ sp needed
 1325 0026 80BD     		pop	{r7, pc}
 1326              		.cfi_endproc
 1327              	.LFE133:
 1329              		.text
 1330              	.Letext0:
 1331              		.file 2 "c:\\program files (x86)\\gnu tools arm embedded\\6 2017-q2-update\\arm-none-eabi\\include
 1332              		.file 3 "c:\\program files (x86)\\gnu tools arm embedded\\6 2017-q2-update\\arm-none-eabi\\include
 1333              		.file 4 "../Includes/core_cm4.h"
 1334              		.file 5 "../Includes/system_MK22F51212.h"
 1335              		.file 6 "../Includes/MK22F51212.h"
 1336              		.file 7 "../Includes/platform.h"
DEFINED SYMBOLS
                            *ABS*:00000000 SSD1306.c
C:\Users\zbind\AppData\Local\Temp\ccK5X2tB.s:20     .bss.actCol:00000000 actCol
C:\Users\zbind\AppData\Local\Temp\ccK5X2tB.s:21     .bss.actCol:00000000 $d
C:\Users\zbind\AppData\Local\Temp\ccK5X2tB.s:25     .bss.actPage:00000000 actPage
C:\Users\zbind\AppData\Local\Temp\ccK5X2tB.s:26     .bss.actPage:00000000 $d
C:\Users\zbind\AppData\Local\Temp\ccK5X2tB.s:28     .data.font:00000000 $d
C:\Users\zbind\AppData\Local\Temp\ccK5X2tB.s:31     .data.font:00000000 font
C:\Users\zbind\AppData\Local\Temp\ccK5X2tB.s:681    .text.SSD1306_WriteCommand:00000000 $t
C:\Users\zbind\AppData\Local\Temp\ccK5X2tB.s:688    .text.SSD1306_WriteCommand:00000000 SSD1306_WriteCommand
C:\Users\zbind\AppData\Local\Temp\ccK5X2tB.s:723    .text.SSD1306_WriteData:00000000 $t
C:\Users\zbind\AppData\Local\Temp\ccK5X2tB.s:730    .text.SSD1306_WriteData:00000000 SSD1306_WriteData
C:\Users\zbind\AppData\Local\Temp\ccK5X2tB.s:764    .text.SSD1306_Init:00000000 $t
C:\Users\zbind\AppData\Local\Temp\ccK5X2tB.s:771    .text.SSD1306_Init:00000000 SSD1306_Init
C:\Users\zbind\AppData\Local\Temp\ccK5X2tB.s:906    .text.SSD1306_Init:000000f4 $d
C:\Users\zbind\AppData\Local\Temp\ccK5X2tB.s:912    .text.SSD1306_Clear:00000000 $t
C:\Users\zbind\AppData\Local\Temp\ccK5X2tB.s:919    .text.SSD1306_Clear:00000000 SSD1306_Clear
C:\Users\zbind\AppData\Local\Temp\ccK5X2tB.s:1125   .text.SSD1306_SetPageStartAddr:00000000 SSD1306_SetPageStartAddr
C:\Users\zbind\AppData\Local\Temp\ccK5X2tB.s:1056   .text.SSD1306_SetColStartAddr:00000000 SSD1306_SetColStartAddr
C:\Users\zbind\AppData\Local\Temp\ccK5X2tB.s:994    .text.SSD1306_Clear:00000054 $d
C:\Users\zbind\AppData\Local\Temp\ccK5X2tB.s:1000   .text.SSD1306_InvertDisplay:00000000 $t
C:\Users\zbind\AppData\Local\Temp\ccK5X2tB.s:1007   .text.SSD1306_InvertDisplay:00000000 SSD1306_InvertDisplay
C:\Users\zbind\AppData\Local\Temp\ccK5X2tB.s:1049   .text.SSD1306_SetColStartAddr:00000000 $t
C:\Users\zbind\AppData\Local\Temp\ccK5X2tB.s:1113   .text.SSD1306_SetColStartAddr:00000048 $d
C:\Users\zbind\AppData\Local\Temp\ccK5X2tB.s:1118   .text.SSD1306_SetPageStartAddr:00000000 $t
C:\Users\zbind\AppData\Local\Temp\ccK5X2tB.s:1172   .text.SSD1306_SetPageStartAddr:00000034 $d
C:\Users\zbind\AppData\Local\Temp\ccK5X2tB.s:1177   .text.SSD1306_PrintChar:00000000 $t
C:\Users\zbind\AppData\Local\Temp\ccK5X2tB.s:1184   .text.SSD1306_PrintChar:00000000 SSD1306_PrintChar
C:\Users\zbind\AppData\Local\Temp\ccK5X2tB.s:1274   .text.SSD1306_PrintChar:00000074 $d
C:\Users\zbind\AppData\Local\Temp\ccK5X2tB.s:1280   .text.SSD1306_PrintString:00000000 $t
C:\Users\zbind\AppData\Local\Temp\ccK5X2tB.s:1287   .text.SSD1306_PrintString:00000000 SSD1306_PrintString
                     .debug_frame:00000010 $d
                           .group:00000000 wm4.0.a6d4f739a788c67292a3ea0a48d10bd5
                           .group:00000000 wm4.MK22F51212.h.96.792c303daa596f91c029224edd7c60aa
                           .group:00000000 wm4._newlib_version.h.4.3572908597b70d672d181fc7fc501c19
                           .group:00000000 wm4.features.h.33.cf97d4c9a045ebab6d282f6356e11363
                           .group:00000000 wm4._default_types.h.15.247e5cd201eca3442cbf5404108c4935
                           .group:00000000 wm4._intsup.h.10.cce27fed8484c08a33f522034c30d2b5
                           .group:00000000 wm4._stdint.h.10.c24fa3af3bc1706662bb5593a907e841
                           .group:00000000 wm4.stdint.h.23.d53047a68f4a85177f80b422d52785ed
                           .group:00000000 wm4.MK22F51212.h.109.eeee73bf5f54e3f06177795004b95e22
                           .group:00000000 wm4.core_cm4.h.43.f75e2f71b2e33f7a3db429cd8b0cae9e
                           .group:00000000 wm4.core_cmInstr.h.39.addda81f1f3453ba31dd54fc5b6fcee8
                           .group:00000000 wm4.core_cmSimd.h.43.c355993beb49ccd10586af5b1cfe5aee
                           .group:00000000 wm4.core_cm4.h.201.a59e218d30e39d114c8962bbad645c74
                           .group:00000000 wm4.system_MK22F51212.h.94.09b5fd63c227fb82ca8c370fba9e2334
                           .group:00000000 wm4.MK22F51212.h.369.5a9c5aa32d240e03ff494f1c769cfadf
                           .group:00000000 wm4.platform.h.20.f6c90800ad13d6e4c49f383292c252be
                           .group:00000000 wm4.SSD1306.h.10.53f3d0e7be20b98f692737c5171bec92
                           .group:00000000 wm4.stddef.h.39.99b5021e28f91cdb161c889e07266673

UNDEFINED SYMBOLS
i2cWriteCmdData
utilWaitUs
