   1              		.cpu cortex-m4
   2              		.eabi_attribute 27, 1
   3              		.eabi_attribute 28, 1
   4              		.eabi_attribute 20, 1
   5              		.eabi_attribute 21, 1
   6              		.eabi_attribute 23, 3
   7              		.eabi_attribute 24, 1
   8              		.eabi_attribute 25, 1
   9              		.eabi_attribute 26, 1
  10              		.eabi_attribute 30, 6
  11              		.eabi_attribute 34, 1
  12              		.eabi_attribute 18, 4
  13              		.file	"term.c"
  14              		.text
  15              	.Ltext0:
  16              		.cfi_sections	.debug_frame
  17              		.section	.bss.destination,"aw",%nobits
  20              	destination:
  21 0000 00       		.space	1
  22              		.section	.bss.head,"aw",%nobits
  23              		.align	2
  26              	head:
  27 0000 00000000 		.space	4
  28              		.section	.rodata
  29              		.align	2
  30              	.LC0:
  31 0000 2000     		.ascii	" \000"
  32              		.section	.text.termRegisterCommandLineHandler,"ax",%progbits
  33              		.align	1
  34              		.global	termRegisterCommandLineHandler
  35              		.syntax unified
  36              		.thumb
  37              		.thumb_func
  38              		.fpu fpv4-sp-d16
  40              	termRegisterCommandLineHandler:
  41              	.LFB125:
  42              		.file 1 "../Sources/com/term.c"
   1:../Sources/com/term.c **** /**
   2:../Sources/com/term.c ****  *--------------------------------------------------------------------\n
   3:../Sources/com/term.c ****  *          HSLU T&A Hochschule Luzern Technik+Architektur            \n
   4:../Sources/com/term.c ****  *--------------------------------------------------------------------\n
   5:../Sources/com/term.c ****  *
   6:../Sources/com/term.c ****  * \brief         terminal program
   7:../Sources/com/term.c ****  * \file
   8:../Sources/com/term.c ****  * \author        Christian Jost, christian.jost@hslu.ch
   9:../Sources/com/term.c ****  * \date          19.03.2018
  10:../Sources/com/term.c ****  *
  11:../Sources/com/term.c ****  * $Id: term.c 116 2018-05-11 14:30:59Z zajost $
  12:../Sources/com/term.c ****  *
  13:../Sources/com/term.c ****  *--------------------------------------------------------------------
  14:../Sources/com/term.c ****  */
  15:../Sources/com/term.c **** #include "platform.h"
  16:../Sources/com/term.c **** #include "term.h"
  17:../Sources/com/term.c **** #include "uart.h"
  18:../Sources/com/term.c **** #include "string.h"
  19:../Sources/com/term.c **** #include "util.h"
  20:../Sources/com/term.c **** 
  21:../Sources/com/term.c **** typedef enum
  22:../Sources/com/term.c **** {
  23:../Sources/com/term.c ****   uart0 = 1,
  24:../Sources/com/term.c ****   uart1 = 2,
  25:../Sources/com/term.c ****   lpuart0 = 4,
  26:../Sources/com/term.c ****   uartAll = (uart0 | uart1 | lpuart0)
  27:../Sources/com/term.c **** } tUart;
  28:../Sources/com/term.c **** 
  29:../Sources/com/term.c **** 
  30:../Sources/com/term.c **** 
  31:../Sources/com/term.c **** 
  32:../Sources/com/term.c **** static tUart destination;
  33:../Sources/com/term.c **** static tCommandLineHandler *head = NULL;
  34:../Sources/com/term.c **** 
  35:../Sources/com/term.c **** void termRegisterCommandLineHandler(tCommandLineHandler *clh, unsigned char* cmd, unsigned char *cm
  36:../Sources/com/term.c **** {
  43              		.loc 1 36 0
  44              		.cfi_startproc
  45              		@ args = 0, pretend = 0, frame = 16
  46              		@ frame_needed = 1, uses_anonymous_args = 0
  47 0000 90B5     		push	{r4, r7, lr}
  48              		.cfi_def_cfa_offset 12
  49              		.cfi_offset 4, -12
  50              		.cfi_offset 7, -8
  51              		.cfi_offset 14, -4
  52 0002 85B0     		sub	sp, sp, #20
  53              		.cfi_def_cfa_offset 32
  54 0004 00AF     		add	r7, sp, #0
  55              		.cfi_def_cfa_register 7
  56 0006 F860     		str	r0, [r7, #12]
  57 0008 B960     		str	r1, [r7, #8]
  58 000a 7A60     		str	r2, [r7, #4]
  59 000c 3B60     		str	r3, [r7]
  37:../Sources/com/term.c ****   clh->next = head;
  60              		.loc 1 37 0
  61 000e 134B     		ldr	r3, .L2
  62 0010 1A68     		ldr	r2, [r3]
  63 0012 FB68     		ldr	r3, [r7, #12]
  64 0014 5A63     		str	r2, [r3, #52]
  38:../Sources/com/term.c ****   head = clh;
  65              		.loc 1 38 0
  66 0016 114A     		ldr	r2, .L2
  67 0018 FB68     		ldr	r3, [r7, #12]
  68 001a 1360     		str	r3, [r2]
  39:../Sources/com/term.c **** 
  40:../Sources/com/term.c ****   strncpy(clh->cmd, cmd, sizeof(clh->cmd));
  69              		.loc 1 40 0
  70 001c FB68     		ldr	r3, [r7, #12]
  71 001e 1022     		movs	r2, #16
  72 0020 B968     		ldr	r1, [r7, #8]
  73 0022 1846     		mov	r0, r3
  74 0024 FFF7FEFF 		bl	strncpy
  41:../Sources/com/term.c ****   strcat(clh->cmd, " ");
  75              		.loc 1 41 0
  76 0028 FC68     		ldr	r4, [r7, #12]
  77 002a 2046     		mov	r0, r4
  78 002c FFF7FEFF 		bl	strlen
  79 0030 0346     		mov	r3, r0
  80 0032 2344     		add	r3, r3, r4
  81 0034 0A49     		ldr	r1, .L2+4
  82 0036 1A46     		mov	r2, r3
  83 0038 0B46     		mov	r3, r1
  84 003a 1B88     		ldrh	r3, [r3]	@ unaligned
  85 003c 1380     		strh	r3, [r2]	@ unaligned
  42:../Sources/com/term.c ****   strncpy(clh->cmdDesc, cmdDesc, sizeof(clh->cmdDesc));
  86              		.loc 1 42 0
  87 003e FB68     		ldr	r3, [r7, #12]
  88 0040 1033     		adds	r3, r3, #16
  89 0042 2022     		movs	r2, #32
  90 0044 7968     		ldr	r1, [r7, #4]
  91 0046 1846     		mov	r0, r3
  92 0048 FFF7FEFF 		bl	strncpy
  43:../Sources/com/term.c ****   clh->cmdHandler = h;
  93              		.loc 1 43 0
  94 004c FB68     		ldr	r3, [r7, #12]
  95 004e 3A68     		ldr	r2, [r7]
  96 0050 1A63     		str	r2, [r3, #48]
  44:../Sources/com/term.c **** }
  97              		.loc 1 44 0
  98 0052 00BF     		nop
  99 0054 1437     		adds	r7, r7, #20
 100              		.cfi_def_cfa_offset 12
 101 0056 BD46     		mov	sp, r7
 102              		.cfi_def_cfa_register 13
 103              		@ sp needed
 104 0058 90BD     		pop	{r4, r7, pc}
 105              	.L3:
 106 005a 00BF     		.align	2
 107              	.L2:
 108 005c 00000000 		.word	head
 109 0060 00000000 		.word	.LC0
 110              		.cfi_endproc
 111              	.LFE125:
 113              		.section	.text.termWriteChar,"ax",%progbits
 114              		.align	1
 115              		.global	termWriteChar
 116              		.syntax unified
 117              		.thumb
 118              		.thumb_func
 119              		.fpu fpv4-sp-d16
 121              	termWriteChar:
 122              	.LFB126:
  45:../Sources/com/term.c **** 
  46:../Sources/com/term.c **** /**
  47:../Sources/com/term.c ****  * Writes a character to the uart
  48:../Sources/com/term.c ****  * The output is sent to the uart which received the last command
  49:../Sources/com/term.c ****  *
  50:../Sources/com/term.c ****  * @param[in] ch
  51:../Sources/com/term.c ****  *   the character to send
  52:../Sources/com/term.c ****  */
  53:../Sources/com/term.c **** void termWriteChar(char ch)
  54:../Sources/com/term.c **** {
 123              		.loc 1 54 0
 124              		.cfi_startproc
 125              		@ args = 0, pretend = 0, frame = 8
 126              		@ frame_needed = 1, uses_anonymous_args = 0
 127 0000 80B5     		push	{r7, lr}
 128              		.cfi_def_cfa_offset 8
 129              		.cfi_offset 7, -8
 130              		.cfi_offset 14, -4
 131 0002 82B0     		sub	sp, sp, #8
 132              		.cfi_def_cfa_offset 16
 133 0004 00AF     		add	r7, sp, #0
 134              		.cfi_def_cfa_register 7
 135 0006 0346     		mov	r3, r0
 136 0008 FB71     		strb	r3, [r7, #7]
  55:../Sources/com/term.c ****   if (TGT_IS_MCCAR)
 137              		.loc 1 55 0
 138 000a 214B     		ldr	r3, .L10
 139 000c 03F58153 		add	r3, r3, #4128
 140 0010 0433     		adds	r3, r3, #4
 141 0012 1B68     		ldr	r3, [r3]
 142 0014 03F00F03 		and	r3, r3, #15
 143 0018 082B     		cmp	r3, #8
 144 001a 15D1     		bne	.L5
  56:../Sources/com/term.c ****   {
  57:../Sources/com/term.c ****     // check if uart0 is enabled
  58:../Sources/com/term.c ****     #if (UART0_EN)
  59:../Sources/com/term.c ****       if (destination & uart0) uart0WriteChar(ch);
 145              		.loc 1 59 0
 146 001c 1D4B     		ldr	r3, .L10+4
 147 001e 1B78     		ldrb	r3, [r3]	@ zero_extendqisi2
 148 0020 03F00103 		and	r3, r3, #1
 149 0024 002B     		cmp	r3, #0
 150 0026 04D0     		beq	.L6
 151              		.loc 1 59 0 is_stmt 0 discriminator 1
 152 0028 97F90730 		ldrsb	r3, [r7, #7]
 153 002c 1846     		mov	r0, r3
 154 002e FFF7FEFF 		bl	uart0WriteChar
 155              	.L6:
  60:../Sources/com/term.c ****     #endif
  61:../Sources/com/term.c **** 
  62:../Sources/com/term.c ****     // check if lpuart0 is enabled
  63:../Sources/com/term.c ****     #if (LPUART0_EN)
  64:../Sources/com/term.c ****       if (destination & lpuart0) lpuart0WriteChar(ch);
 156              		.loc 1 64 0 is_stmt 1
 157 0032 184B     		ldr	r3, .L10+4
 158 0034 1B78     		ldrb	r3, [r3]	@ zero_extendqisi2
 159 0036 03F00403 		and	r3, r3, #4
 160 003a 002B     		cmp	r3, #0
 161 003c 04D0     		beq	.L5
 162              		.loc 1 64 0 is_stmt 0 discriminator 1
 163 003e 97F90730 		ldrsb	r3, [r7, #7]
 164 0042 1846     		mov	r0, r3
 165 0044 FFF7FEFF 		bl	lpuart0WriteChar
 166              	.L5:
  65:../Sources/com/term.c ****     #endif
  66:../Sources/com/term.c ****   }
  67:../Sources/com/term.c **** 
  68:../Sources/com/term.c ****   if (TGT_IS_TINYK22)
 167              		.loc 1 68 0 is_stmt 1
 168 0048 114B     		ldr	r3, .L10
 169 004a 03F58153 		add	r3, r3, #4128
 170 004e 0433     		adds	r3, r3, #4
 171 0050 1B68     		ldr	r3, [r3]
 172 0052 03F00F03 		and	r3, r3, #15
 173 0056 052B     		cmp	r3, #5
 174 0058 15D1     		bne	.L9
  69:../Sources/com/term.c ****   {
  70:../Sources/com/term.c ****     // check if uart1 is enabled
  71:../Sources/com/term.c ****     #if (UART1_EN)
  72:../Sources/com/term.c ****       if (destination & uart1) uart1WriteChar(ch);
 175              		.loc 1 72 0
 176 005a 0E4B     		ldr	r3, .L10+4
 177 005c 1B78     		ldrb	r3, [r3]	@ zero_extendqisi2
 178 005e 03F00203 		and	r3, r3, #2
 179 0062 002B     		cmp	r3, #0
 180 0064 04D0     		beq	.L8
 181              		.loc 1 72 0 is_stmt 0 discriminator 1
 182 0066 97F90730 		ldrsb	r3, [r7, #7]
 183 006a 1846     		mov	r0, r3
 184 006c FFF7FEFF 		bl	uart1WriteChar
 185              	.L8:
  73:../Sources/com/term.c ****     #endif
  74:../Sources/com/term.c **** 	#if (UART0_EN)
  75:../Sources/com/term.c ****       if (destination & uart0) uart0WriteChar(ch);
 186              		.loc 1 75 0 is_stmt 1
 187 0070 084B     		ldr	r3, .L10+4
 188 0072 1B78     		ldrb	r3, [r3]	@ zero_extendqisi2
 189 0074 03F00103 		and	r3, r3, #1
 190 0078 002B     		cmp	r3, #0
 191 007a 04D0     		beq	.L9
 192              		.loc 1 75 0 is_stmt 0 discriminator 1
 193 007c 97F90730 		ldrsb	r3, [r7, #7]
 194 0080 1846     		mov	r0, r3
 195 0082 FFF7FEFF 		bl	uart0WriteChar
 196              	.L9:
  76:../Sources/com/term.c **** 	#endif
  77:../Sources/com/term.c ****   }
  78:../Sources/com/term.c **** }
 197              		.loc 1 78 0 is_stmt 1
 198 0086 00BF     		nop
 199 0088 0837     		adds	r7, r7, #8
 200              		.cfi_def_cfa_offset 8
 201 008a BD46     		mov	sp, r7
 202              		.cfi_def_cfa_register 13
 203              		@ sp needed
 204 008c 80BD     		pop	{r7, pc}
 205              	.L11:
 206 008e 00BF     		.align	2
 207              	.L10:
 208 0090 00700440 		.word	1074032640
 209 0094 00000000 		.word	destination
 210              		.cfi_endproc
 211              	.LFE126:
 213              		.section	.text.termWrite,"ax",%progbits
 214              		.align	1
 215              		.global	termWrite
 216              		.syntax unified
 217              		.thumb
 218              		.thumb_func
 219              		.fpu fpv4-sp-d16
 221              	termWrite:
 222              	.LFB127:
  79:../Sources/com/term.c **** 
  80:../Sources/com/term.c **** /**
  81:../Sources/com/term.c ****  * Writes a null terminated string in the send buffer. If the
  82:../Sources/com/term.c ****  * string is null, the function returns immediately.
  83:../Sources/com/term.c ****  *
  84:../Sources/com/term.c ****  * @param[in] str
  85:../Sources/com/term.c ****  *   the null terminated string to send
  86:../Sources/com/term.c ****  */
  87:../Sources/com/term.c **** void termWrite(const char *str)
  88:../Sources/com/term.c **** {
 223              		.loc 1 88 0
 224              		.cfi_startproc
 225              		@ args = 0, pretend = 0, frame = 8
 226              		@ frame_needed = 1, uses_anonymous_args = 0
 227 0000 80B5     		push	{r7, lr}
 228              		.cfi_def_cfa_offset 8
 229              		.cfi_offset 7, -8
 230              		.cfi_offset 14, -4
 231 0002 82B0     		sub	sp, sp, #8
 232              		.cfi_def_cfa_offset 16
 233 0004 00AF     		add	r7, sp, #0
 234              		.cfi_def_cfa_register 7
 235 0006 7860     		str	r0, [r7, #4]
  89:../Sources/com/term.c ****   if (str == NULL) return;
 236              		.loc 1 89 0
 237 0008 7B68     		ldr	r3, [r7, #4]
 238 000a 002B     		cmp	r3, #0
 239 000c 0ED0     		beq	.L17
  90:../Sources/com/term.c ****   while (*str != '\0') termWriteChar(*str++);
 240              		.loc 1 90 0
 241 000e 07E0     		b	.L15
 242              	.L16:
 243              		.loc 1 90 0 is_stmt 0 discriminator 2
 244 0010 7B68     		ldr	r3, [r7, #4]
 245 0012 5A1C     		adds	r2, r3, #1
 246 0014 7A60     		str	r2, [r7, #4]
 247 0016 93F90030 		ldrsb	r3, [r3]
 248 001a 1846     		mov	r0, r3
 249 001c FFF7FEFF 		bl	termWriteChar
 250              	.L15:
 251              		.loc 1 90 0 discriminator 1
 252 0020 7B68     		ldr	r3, [r7, #4]
 253 0022 93F90030 		ldrsb	r3, [r3]
 254 0026 002B     		cmp	r3, #0
 255 0028 F2D1     		bne	.L16
 256 002a 00E0     		b	.L12
 257              	.L17:
  89:../Sources/com/term.c ****   if (str == NULL) return;
 258              		.loc 1 89 0 is_stmt 1
 259 002c 00BF     		nop
 260              	.L12:
  91:../Sources/com/term.c **** }
 261              		.loc 1 91 0
 262 002e 0837     		adds	r7, r7, #8
 263              		.cfi_def_cfa_offset 8
 264 0030 BD46     		mov	sp, r7
 265              		.cfi_def_cfa_register 13
 266              		@ sp needed
 267 0032 80BD     		pop	{r7, pc}
 268              		.cfi_endproc
 269              	.LFE127:
 271              		.section	.text.termWriteNum32s,"ax",%progbits
 272              		.align	1
 273              		.global	termWriteNum32s
 274              		.syntax unified
 275              		.thumb
 276              		.thumb_func
 277              		.fpu fpv4-sp-d16
 279              	termWriteNum32s:
 280              	.LFB128:
  92:../Sources/com/term.c **** 
  93:../Sources/com/term.c **** void termWriteNum32s(int32_t value)
  94:../Sources/com/term.c **** {
 281              		.loc 1 94 0
 282              		.cfi_startproc
 283              		@ args = 0, pretend = 0, frame = 24
 284              		@ frame_needed = 1, uses_anonymous_args = 0
 285 0000 80B5     		push	{r7, lr}
 286              		.cfi_def_cfa_offset 8
 287              		.cfi_offset 7, -8
 288              		.cfi_offset 14, -4
 289 0002 86B0     		sub	sp, sp, #24
 290              		.cfi_def_cfa_offset 32
 291 0004 00AF     		add	r7, sp, #0
 292              		.cfi_def_cfa_register 7
 293 0006 7860     		str	r0, [r7, #4]
  95:../Sources/com/term.c ****   char str[sizeof("-2147483648")];
  96:../Sources/com/term.c ****   utilNum32sToStr(str, sizeof(str), value);
 294              		.loc 1 96 0
 295 0008 07F10C03 		add	r3, r7, #12
 296 000c 7A68     		ldr	r2, [r7, #4]
 297 000e 0C21     		movs	r1, #12
 298 0010 1846     		mov	r0, r3
 299 0012 FFF7FEFF 		bl	utilNum32sToStr
  97:../Sources/com/term.c ****   termWrite(str);
 300              		.loc 1 97 0
 301 0016 07F10C03 		add	r3, r7, #12
 302 001a 1846     		mov	r0, r3
 303 001c FFF7FEFF 		bl	termWrite
  98:../Sources/com/term.c **** }
 304              		.loc 1 98 0
 305 0020 00BF     		nop
 306 0022 1837     		adds	r7, r7, #24
 307              		.cfi_def_cfa_offset 8
 308 0024 BD46     		mov	sp, r7
 309              		.cfi_def_cfa_register 13
 310              		@ sp needed
 311 0026 80BD     		pop	{r7, pc}
 312              		.cfi_endproc
 313              	.LFE128:
 315              		.section	.text.termWriteNum16s,"ax",%progbits
 316              		.align	1
 317              		.global	termWriteNum16s
 318              		.syntax unified
 319              		.thumb
 320              		.thumb_func
 321              		.fpu fpv4-sp-d16
 323              	termWriteNum16s:
 324              	.LFB129:
  99:../Sources/com/term.c **** 
 100:../Sources/com/term.c **** void termWriteNum16s(int16_t value)
 101:../Sources/com/term.c **** {
 325              		.loc 1 101 0
 326              		.cfi_startproc
 327              		@ args = 0, pretend = 0, frame = 16
 328              		@ frame_needed = 1, uses_anonymous_args = 0
 329 0000 80B5     		push	{r7, lr}
 330              		.cfi_def_cfa_offset 8
 331              		.cfi_offset 7, -8
 332              		.cfi_offset 14, -4
 333 0002 84B0     		sub	sp, sp, #16
 334              		.cfi_def_cfa_offset 24
 335 0004 00AF     		add	r7, sp, #0
 336              		.cfi_def_cfa_register 7
 337 0006 0346     		mov	r3, r0
 338 0008 FB80     		strh	r3, [r7, #6]	@ movhi
 102:../Sources/com/term.c ****   char str[sizeof("-32768")];
 103:../Sources/com/term.c ****   utilNum16sToStr(str, sizeof(str), value);
 339              		.loc 1 103 0
 340 000a B7F90620 		ldrsh	r2, [r7, #6]
 341 000e 07F10803 		add	r3, r7, #8
 342 0012 0721     		movs	r1, #7
 343 0014 1846     		mov	r0, r3
 344 0016 FFF7FEFF 		bl	utilNum16sToStr
 104:../Sources/com/term.c ****   termWrite(str);
 345              		.loc 1 104 0
 346 001a 07F10803 		add	r3, r7, #8
 347 001e 1846     		mov	r0, r3
 348 0020 FFF7FEFF 		bl	termWrite
 105:../Sources/com/term.c **** }
 349              		.loc 1 105 0
 350 0024 00BF     		nop
 351 0026 1037     		adds	r7, r7, #16
 352              		.cfi_def_cfa_offset 8
 353 0028 BD46     		mov	sp, r7
 354              		.cfi_def_cfa_register 13
 355              		@ sp needed
 356 002a 80BD     		pop	{r7, pc}
 357              		.cfi_endproc
 358              	.LFE129:
 360              		.section	.text.termWriteLine,"ax",%progbits
 361              		.align	1
 362              		.global	termWriteLine
 363              		.syntax unified
 364              		.thumb
 365              		.thumb_func
 366              		.fpu fpv4-sp-d16
 368              	termWriteLine:
 369              	.LFB130:
 106:../Sources/com/term.c **** 
 107:../Sources/com/term.c **** /**
 108:../Sources/com/term.c ****  * Writes a null terminated string in the send buffer. If the
 109:../Sources/com/term.c ****  * string is null, only a new new line character is sent.
 110:../Sources/com/term.c ****  *
 111:../Sources/com/term.c ****  * @param[in] str
 112:../Sources/com/term.c ****  *   the null terminated string to send
 113:../Sources/com/term.c ****  */
 114:../Sources/com/term.c **** void termWriteLine(const char *str)
 115:../Sources/com/term.c **** {
 370              		.loc 1 115 0
 371              		.cfi_startproc
 372              		@ args = 0, pretend = 0, frame = 8
 373              		@ frame_needed = 1, uses_anonymous_args = 0
 374 0000 80B5     		push	{r7, lr}
 375              		.cfi_def_cfa_offset 8
 376              		.cfi_offset 7, -8
 377              		.cfi_offset 14, -4
 378 0002 82B0     		sub	sp, sp, #8
 379              		.cfi_def_cfa_offset 16
 380 0004 00AF     		add	r7, sp, #0
 381              		.cfi_def_cfa_register 7
 382 0006 7860     		str	r0, [r7, #4]
 116:../Sources/com/term.c ****   termWrite(str);
 383              		.loc 1 116 0
 384 0008 7868     		ldr	r0, [r7, #4]
 385 000a FFF7FEFF 		bl	termWrite
 117:../Sources/com/term.c ****   termWriteChar(NEW_LINE);
 386              		.loc 1 117 0
 387 000e 0A20     		movs	r0, #10
 388 0010 FFF7FEFF 		bl	termWriteChar
 118:../Sources/com/term.c **** }
 389              		.loc 1 118 0
 390 0014 00BF     		nop
 391 0016 0837     		adds	r7, r7, #8
 392              		.cfi_def_cfa_offset 8
 393 0018 BD46     		mov	sp, r7
 394              		.cfi_def_cfa_register 13
 395              		@ sp needed
 396 001a 80BD     		pop	{r7, pc}
 397              		.cfi_endproc
 398              	.LFE130:
 400              		.section	.text.termWriteSubString,"ax",%progbits
 401              		.align	1
 402              		.global	termWriteSubString
 403              		.syntax unified
 404              		.thumb
 405              		.thumb_func
 406              		.fpu fpv4-sp-d16
 408              	termWriteSubString:
 409              	.LFB131:
 119:../Sources/com/term.c **** 
 120:../Sources/com/term.c **** /**
 121:../Sources/com/term.c ****  * Writes a substring in the send buffer.
 122:../Sources/com/term.c ****  *
 123:../Sources/com/term.c ****  * @param[in] str
 124:../Sources/com/term.c ****  *   the null terminated string to send
 125:../Sources/com/term.c ****  * @param[in] start
 126:../Sources/com/term.c ****  *   the start position of the substring to send
 127:../Sources/com/term.c ****  * @param[in] length
 128:../Sources/com/term.c ****  *   the number of characters to send
 129:../Sources/com/term.c ****  */
 130:../Sources/com/term.c **** void termWriteSubString(char *str, uint8_t start, uint8_t length)
 131:../Sources/com/term.c **** {
 410              		.loc 1 131 0
 411              		.cfi_startproc
 412              		@ args = 0, pretend = 0, frame = 8
 413              		@ frame_needed = 1, uses_anonymous_args = 0
 414 0000 80B5     		push	{r7, lr}
 415              		.cfi_def_cfa_offset 8
 416              		.cfi_offset 7, -8
 417              		.cfi_offset 14, -4
 418 0002 82B0     		sub	sp, sp, #8
 419              		.cfi_def_cfa_offset 16
 420 0004 00AF     		add	r7, sp, #0
 421              		.cfi_def_cfa_register 7
 422 0006 7860     		str	r0, [r7, #4]
 423 0008 0B46     		mov	r3, r1
 424 000a FB70     		strb	r3, [r7, #3]
 425 000c 1346     		mov	r3, r2
 426 000e BB70     		strb	r3, [r7, #2]
 132:../Sources/com/term.c ****   str += start;
 427              		.loc 1 132 0
 428 0010 FB78     		ldrb	r3, [r7, #3]	@ zero_extendqisi2
 429 0012 7A68     		ldr	r2, [r7, #4]
 430 0014 1344     		add	r3, r3, r2
 431 0016 7B60     		str	r3, [r7, #4]
 133:../Sources/com/term.c ****   while(length--) termWriteChar(*str++);
 432              		.loc 1 133 0
 433 0018 07E0     		b	.L22
 434              	.L23:
 435              		.loc 1 133 0 is_stmt 0 discriminator 2
 436 001a 7B68     		ldr	r3, [r7, #4]
 437 001c 5A1C     		adds	r2, r3, #1
 438 001e 7A60     		str	r2, [r7, #4]
 439 0020 93F90030 		ldrsb	r3, [r3]
 440 0024 1846     		mov	r0, r3
 441 0026 FFF7FEFF 		bl	termWriteChar
 442              	.L22:
 443              		.loc 1 133 0 discriminator 1
 444 002a BB78     		ldrb	r3, [r7, #2]	@ zero_extendqisi2
 445 002c 5A1E     		subs	r2, r3, #1
 446 002e BA70     		strb	r2, [r7, #2]
 447 0030 002B     		cmp	r3, #0
 448 0032 F2D1     		bne	.L23
 134:../Sources/com/term.c **** }
 449              		.loc 1 134 0 is_stmt 1
 450 0034 00BF     		nop
 451 0036 0837     		adds	r7, r7, #8
 452              		.cfi_def_cfa_offset 8
 453 0038 BD46     		mov	sp, r7
 454              		.cfi_def_cfa_register 13
 455              		@ sp needed
 456 003a 80BD     		pop	{r7, pc}
 457              		.cfi_endproc
 458              	.LFE131:
 460              		.section	.rodata
 461 0002 0000     		.align	2
 462              	.LC1:
 463 0004 68656C70 		.ascii	"help\000"
 463      00
 464 0009 000000   		.align	2
 465              	.LC2:
 466 000c 3E3E3E20 		.ascii	">>> MC-Car v2 terminal ready <<<\000"
 466      4D432D43 
 466      61722076 
 466      32207465 
 466      726D696E 
 467 002d 000000   		.align	2
 468              	.LC3:
 469 0030 76616C69 		.ascii	"valid commands are:\000"
 469      6420636F 
 469      6D6D616E 
 469      64732061 
 469      72653A00 
 470              		.align	2
 471              	.LC4:
 472 0044 202000   		.ascii	"  \000"
 473 0047 00       		.align	2
 474              	.LC5:
 475 0048 3A20636F 		.ascii	": command not found!\000"
 475      6D6D616E 
 475      64206E6F 
 475      7420666F 
 475      756E6421 
 476 005d 000000   		.align	2
 477              	.LC6:
 478 0060 4572726F 		.ascii	"Error Code: \000"
 478      7220436F 
 478      64653A20 
 478      00
 479 006d 000000   		.align	2
 480              	.LC7:
 481 0070 456E7465 		.ascii	"Enter '\000"
 481      72202700 
 482              		.align	2
 483              	.LC8:
 484 0078 68656C70 		.ascii	"help' for a list of valid commands.\000"
 484      2720666F 
 484      72206120 
 484      6C697374 
 484      206F6620 
 485              		.section	.text.termParseCommand,"ax",%progbits
 486              		.align	1
 487              		.global	termParseCommand
 488              		.syntax unified
 489              		.thumb
 490              		.thumb_func
 491              		.fpu fpv4-sp-d16
 493              	termParseCommand:
 494              	.LFB132:
 135:../Sources/com/term.c **** 
 136:../Sources/com/term.c **** /**
 137:../Sources/com/term.c ****  * Parses one command line and executes the appropriate command.
 138:../Sources/com/term.c ****  *
 139:../Sources/com/term.c ****  * @param[in] cmd
 140:../Sources/com/term.c ****  *   the null terminated string to process
 141:../Sources/com/term.c ****  */
 142:../Sources/com/term.c **** void termParseCommand(char *cmd)
 143:../Sources/com/term.c **** {
 495              		.loc 1 143 0
 496              		.cfi_startproc
 497              		@ args = 0, pretend = 0, frame = 32
 498              		@ frame_needed = 1, uses_anonymous_args = 0
 499 0000 90B5     		push	{r4, r7, lr}
 500              		.cfi_def_cfa_offset 12
 501              		.cfi_offset 4, -12
 502              		.cfi_offset 7, -8
 503              		.cfi_offset 14, -4
 504 0002 89B0     		sub	sp, sp, #36
 505              		.cfi_def_cfa_offset 48
 506 0004 00AF     		add	r7, sp, #0
 507              		.cfi_def_cfa_register 7
 508 0006 7860     		str	r0, [r7, #4]
 144:../Sources/com/term.c ****   uint8_t subCmdLength = 0;
 509              		.loc 1 144 0
 510 0008 0023     		movs	r3, #0
 511 000a FB77     		strb	r3, [r7, #31]
 145:../Sources/com/term.c ****   tError result = EC_INVALID_CMD;
 512              		.loc 1 145 0
 513 000c 0123     		movs	r3, #1
 514 000e BB77     		strb	r3, [r7, #30]
 146:../Sources/com/term.c ****   tCommandLineHandler *clh = head;
 515              		.loc 1 146 0
 516 0010 404B     		ldr	r3, .L34
 517 0012 1B68     		ldr	r3, [r3]
 518 0014 BB61     		str	r3, [r7, #24]
 147:../Sources/com/term.c ****   char buf[16];
 148:../Sources/com/term.c **** 
 149:../Sources/com/term.c ****   if (strcmp(cmd, "help") == 0)
 519              		.loc 1 149 0
 520 0016 4049     		ldr	r1, .L34+4
 521 0018 7868     		ldr	r0, [r7, #4]
 522 001a FFF7FEFF 		bl	strcmp
 523 001e 0346     		mov	r3, r0
 524 0020 002B     		cmp	r3, #0
 525 0022 46D1     		bne	.L29
 150:../Sources/com/term.c ****   {
 151:../Sources/com/term.c ****     termWriteLine(NULL);
 526              		.loc 1 151 0
 527 0024 0020     		movs	r0, #0
 528 0026 FFF7FEFF 		bl	termWriteLine
 152:../Sources/com/term.c ****     termWriteLine(">>> MC-Car v2 terminal ready <<<");
 529              		.loc 1 152 0
 530 002a 3C48     		ldr	r0, .L34+8
 531 002c FFF7FEFF 		bl	termWriteLine
 153:../Sources/com/term.c ****     termWriteLine("valid commands are:");
 532              		.loc 1 153 0
 533 0030 3B48     		ldr	r0, .L34+12
 534 0032 FFF7FEFF 		bl	termWriteLine
 154:../Sources/com/term.c ****     while(clh != NULL)
 535              		.loc 1 154 0
 536 0036 11E0     		b	.L26
 537              	.L27:
 155:../Sources/com/term.c ****     {
 156:../Sources/com/term.c ****       termWrite("  ");
 538              		.loc 1 156 0
 539 0038 3A48     		ldr	r0, .L34+16
 540 003a FFF7FEFF 		bl	termWrite
 157:../Sources/com/term.c ****       termWrite(clh->cmd);
 541              		.loc 1 157 0
 542 003e BB69     		ldr	r3, [r7, #24]
 543 0040 1846     		mov	r0, r3
 544 0042 FFF7FEFF 		bl	termWrite
 158:../Sources/com/term.c ****       termWrite(" ");
 545              		.loc 1 158 0
 546 0046 3848     		ldr	r0, .L34+20
 547 0048 FFF7FEFF 		bl	termWrite
 159:../Sources/com/term.c ****       termWriteLine(clh->cmdDesc);
 548              		.loc 1 159 0
 549 004c BB69     		ldr	r3, [r7, #24]
 550 004e 1033     		adds	r3, r3, #16
 551 0050 1846     		mov	r0, r3
 552 0052 FFF7FEFF 		bl	termWriteLine
 160:../Sources/com/term.c ****       clh = clh->next;
 553              		.loc 1 160 0
 554 0056 BB69     		ldr	r3, [r7, #24]
 555 0058 5B6B     		ldr	r3, [r3, #52]
 556 005a BB61     		str	r3, [r7, #24]
 557              	.L26:
 154:../Sources/com/term.c ****     {
 558              		.loc 1 154 0
 559 005c BB69     		ldr	r3, [r7, #24]
 560 005e 002B     		cmp	r3, #0
 561 0060 EAD1     		bne	.L27
 161:../Sources/com/term.c ****     }
 162:../Sources/com/term.c ****     result = EC_SUCCESS;
 562              		.loc 1 162 0
 563 0062 0023     		movs	r3, #0
 564 0064 BB77     		strb	r3, [r7, #30]
 565 0066 27E0     		b	.L28
 566              	.L31:
 163:../Sources/com/term.c ****   }
 164:../Sources/com/term.c ****   else
 165:../Sources/com/term.c ****   {
 166:../Sources/com/term.c ****     while(clh != NULL)
 167:../Sources/com/term.c ****     {
 168:../Sources/com/term.c ****       if (strncmp(cmd, clh->cmd, strlen(clh->cmd)) == 0)
 567              		.loc 1 168 0
 568 0068 BC69     		ldr	r4, [r7, #24]
 569 006a BB69     		ldr	r3, [r7, #24]
 570 006c 1846     		mov	r0, r3
 571 006e FFF7FEFF 		bl	strlen
 572 0072 0346     		mov	r3, r0
 573 0074 1A46     		mov	r2, r3
 574 0076 2146     		mov	r1, r4
 575 0078 7868     		ldr	r0, [r7, #4]
 576 007a FFF7FEFF 		bl	strncmp
 577 007e 0346     		mov	r3, r0
 578 0080 002B     		cmp	r3, #0
 579 0082 13D1     		bne	.L30
 169:../Sources/com/term.c ****       {
 170:../Sources/com/term.c ****         subCmdLength = strlen(clh->cmd);
 580              		.loc 1 170 0
 581 0084 BB69     		ldr	r3, [r7, #24]
 582 0086 1846     		mov	r0, r3
 583 0088 FFF7FEFF 		bl	strlen
 584 008c 0346     		mov	r3, r0
 585 008e FB77     		strb	r3, [r7, #31]
 171:../Sources/com/term.c ****         result = clh->cmdHandler(cmd + strlen(clh->cmd));
 586              		.loc 1 171 0
 587 0090 BB69     		ldr	r3, [r7, #24]
 588 0092 1C6B     		ldr	r4, [r3, #48]
 589 0094 BB69     		ldr	r3, [r7, #24]
 590 0096 1846     		mov	r0, r3
 591 0098 FFF7FEFF 		bl	strlen
 592 009c 0246     		mov	r2, r0
 593 009e 7B68     		ldr	r3, [r7, #4]
 594 00a0 1344     		add	r3, r3, r2
 595 00a2 1846     		mov	r0, r3
 596 00a4 A047     		blx	r4
 597              	.LVL0:
 598 00a6 0346     		mov	r3, r0
 599 00a8 BB77     		strb	r3, [r7, #30]
 172:../Sources/com/term.c ****         break;
 600              		.loc 1 172 0
 601 00aa 05E0     		b	.L28
 602              	.L30:
 173:../Sources/com/term.c ****       }
 174:../Sources/com/term.c ****       clh = clh->next;
 603              		.loc 1 174 0
 604 00ac BB69     		ldr	r3, [r7, #24]
 605 00ae 5B6B     		ldr	r3, [r3, #52]
 606 00b0 BB61     		str	r3, [r7, #24]
 607              	.L29:
 166:../Sources/com/term.c ****     {
 608              		.loc 1 166 0
 609 00b2 BB69     		ldr	r3, [r7, #24]
 610 00b4 002B     		cmp	r3, #0
 611 00b6 D7D1     		bne	.L31
 612              	.L28:
 175:../Sources/com/term.c ****     }
 176:../Sources/com/term.c ****   }
 177:../Sources/com/term.c **** 
 178:../Sources/com/term.c ****   if (result != EC_SUCCESS)
 613              		.loc 1 178 0
 614 00b8 BB7F     		ldrb	r3, [r7, #30]	@ zero_extendqisi2
 615 00ba 002B     		cmp	r3, #0
 616 00bc 26D0     		beq	.L33
 179:../Sources/com/term.c ****   {
 180:../Sources/com/term.c ****     termWriteLine(NULL);
 617              		.loc 1 180 0
 618 00be 0020     		movs	r0, #0
 619 00c0 FFF7FEFF 		bl	termWriteLine
 181:../Sources/com/term.c ****     termWrite(cmd);
 620              		.loc 1 181 0
 621 00c4 7868     		ldr	r0, [r7, #4]
 622 00c6 FFF7FEFF 		bl	termWrite
 182:../Sources/com/term.c ****     termWriteLine(": command not found!");
 623              		.loc 1 182 0
 624 00ca 1848     		ldr	r0, .L34+24
 625 00cc FFF7FEFF 		bl	termWriteLine
 183:../Sources/com/term.c ****     termWrite("Error Code: ");
 626              		.loc 1 183 0
 627 00d0 1748     		ldr	r0, .L34+28
 628 00d2 FFF7FEFF 		bl	termWrite
 184:../Sources/com/term.c ****     buf[0] = '\0';
 629              		.loc 1 184 0
 630 00d6 0023     		movs	r3, #0
 631 00d8 3B72     		strb	r3, [r7, #8]
 185:../Sources/com/term.c ****     utilNum16uToStr(buf, sizeof(buf), result);
 632              		.loc 1 185 0
 633 00da BB7F     		ldrb	r3, [r7, #30]	@ zero_extendqisi2
 634 00dc 9AB2     		uxth	r2, r3
 635 00de 07F10803 		add	r3, r7, #8
 636 00e2 1021     		movs	r1, #16
 637 00e4 1846     		mov	r0, r3
 638 00e6 FFF7FEFF 		bl	utilNum16uToStr
 186:../Sources/com/term.c ****     termWriteLine(buf);
 639              		.loc 1 186 0
 640 00ea 07F10803 		add	r3, r7, #8
 641 00ee 1846     		mov	r0, r3
 642 00f0 FFF7FEFF 		bl	termWriteLine
 187:../Sources/com/term.c ****     termWrite("Enter '");
 643              		.loc 1 187 0
 644 00f4 0F48     		ldr	r0, .L34+32
 645 00f6 FFF7FEFF 		bl	termWrite
 188:../Sources/com/term.c ****     termWriteSubString(cmd, 0, subCmdLength);
 646              		.loc 1 188 0
 647 00fa FB7F     		ldrb	r3, [r7, #31]	@ zero_extendqisi2
 648 00fc 1A46     		mov	r2, r3
 649 00fe 0021     		movs	r1, #0
 650 0100 7868     		ldr	r0, [r7, #4]
 651 0102 FFF7FEFF 		bl	termWriteSubString
 189:../Sources/com/term.c ****     termWriteLine("help' for a list of valid commands.");
 652              		.loc 1 189 0
 653 0106 0C48     		ldr	r0, .L34+36
 654 0108 FFF7FEFF 		bl	termWriteLine
 655              	.L33:
 190:../Sources/com/term.c ****   }
 191:../Sources/com/term.c **** }
 656              		.loc 1 191 0
 657 010c 00BF     		nop
 658 010e 2437     		adds	r7, r7, #36
 659              		.cfi_def_cfa_offset 12
 660 0110 BD46     		mov	sp, r7
 661              		.cfi_def_cfa_register 13
 662              		@ sp needed
 663 0112 90BD     		pop	{r4, r7, pc}
 664              	.L35:
 665              		.align	2
 666              	.L34:
 667 0114 00000000 		.word	head
 668 0118 04000000 		.word	.LC1
 669 011c 0C000000 		.word	.LC2
 670 0120 30000000 		.word	.LC3
 671 0124 44000000 		.word	.LC4
 672 0128 00000000 		.word	.LC0
 673 012c 48000000 		.word	.LC5
 674 0130 60000000 		.word	.LC6
 675 0134 70000000 		.word	.LC7
 676 0138 78000000 		.word	.LC8
 677              		.cfi_endproc
 678              	.LFE132:
 680              		.section	.text.termDoWork,"ax",%progbits
 681              		.align	1
 682              		.global	termDoWork
 683              		.syntax unified
 684              		.thumb
 685              		.thumb_func
 686              		.fpu fpv4-sp-d16
 688              	termDoWork:
 689              	.LFB133:
 192:../Sources/com/term.c **** 
 193:../Sources/com/term.c **** /**
 194:../Sources/com/term.c ****  * @brief Terminal do work
 195:../Sources/com/term.c ****  *
 196:../Sources/com/term.c ****  * This function reads a line from the uart and calls the
 197:../Sources/com/term.c ****  * termParseCommand function to process the command.
 198:../Sources/com/term.c ****  */
 199:../Sources/com/term.c **** void termDoWork(void)
 200:../Sources/com/term.c **** {
 690              		.loc 1 200 0
 691              		.cfi_startproc
 692              		@ args = 0, pretend = 0, frame = 512
 693              		@ frame_needed = 1, uses_anonymous_args = 0
 694 0000 80B5     		push	{r7, lr}
 695              		.cfi_def_cfa_offset 8
 696              		.cfi_offset 7, -8
 697              		.cfi_offset 14, -4
 698 0002 ADF5007D 		sub	sp, sp, #512
 699              		.cfi_def_cfa_offset 520
 700 0006 00AF     		add	r7, sp, #0
 701              		.cfi_def_cfa_register 7
 201:../Sources/com/term.c ****   char cmd[512];
 202:../Sources/com/term.c ****   if (TGT_IS_MCCAR)
 702              		.loc 1 202 0
 703 0008 2F4B     		ldr	r3, .L42
 704 000a 03F58153 		add	r3, r3, #4128
 705 000e 0433     		adds	r3, r3, #4
 706 0010 1B68     		ldr	r3, [r3]
 707 0012 03F00F03 		and	r3, r3, #15
 708 0016 082B     		cmp	r3, #8
 709 0018 23D1     		bne	.L37
 203:../Sources/com/term.c ****   {
 204:../Sources/com/term.c ****     #if (UART0_EN)
 205:../Sources/com/term.c ****       if (uart0HasLineReceived())
 710              		.loc 1 205 0
 711 001a FFF7FEFF 		bl	uart0HasLineReceived
 712 001e 0346     		mov	r3, r0
 713 0020 002B     		cmp	r3, #0
 714 0022 0CD0     		beq	.L38
 206:../Sources/com/term.c ****       {
 207:../Sources/com/term.c ****         destination = uart0;
 715              		.loc 1 207 0
 716 0024 294B     		ldr	r3, .L42+4
 717 0026 0122     		movs	r2, #1
 718 0028 1A70     		strb	r2, [r3]
 208:../Sources/com/term.c ****         uart0ReadLine(cmd, sizeof(cmd));            // process uart data from debug interface
 719              		.loc 1 208 0
 720 002a 3B46     		mov	r3, r7
 721 002c 4FF40071 		mov	r1, #512
 722 0030 1846     		mov	r0, r3
 723 0032 FFF7FEFF 		bl	uart0ReadLine
 209:../Sources/com/term.c ****         termParseCommand(cmd);
 724              		.loc 1 209 0
 725 0036 3B46     		mov	r3, r7
 726 0038 1846     		mov	r0, r3
 727 003a FFF7FEFF 		bl	termParseCommand
 728              	.L38:
 210:../Sources/com/term.c ****       }
 211:../Sources/com/term.c ****     #endif
 212:../Sources/com/term.c **** 
 213:../Sources/com/term.c ****     #if (LPUART0_EN)
 214:../Sources/com/term.c ****       if (lpuart0HasLineReceived())                 // process uart data from bluetooth interface
 729              		.loc 1 214 0
 730 003e FFF7FEFF 		bl	lpuart0HasLineReceived
 731 0042 0346     		mov	r3, r0
 732 0044 002B     		cmp	r3, #0
 733 0046 0CD0     		beq	.L37
 734              	.LBB2:
 215:../Sources/com/term.c ****       {
 216:../Sources/com/term.c ****         destination = lpuart0;
 735              		.loc 1 216 0
 736 0048 204B     		ldr	r3, .L42+4
 737 004a 0422     		movs	r2, #4
 738 004c 1A70     		strb	r2, [r3]
 217:../Sources/com/term.c ****         lpuart0ReadLine(cmd, sizeof(cmd));
 739              		.loc 1 217 0
 740 004e 3B46     		mov	r3, r7
 741 0050 4FF40071 		mov	r1, #512
 742 0054 1846     		mov	r0, r3
 743 0056 FFF7FEFF 		bl	lpuart0ReadLine
 218:../Sources/com/term.c ****         ParseCommand(cmd);//termParseCommand(cmd);termParseCommand(cmd);
 744              		.loc 1 218 0
 745 005a 3B46     		mov	r3, r7
 746 005c 1846     		mov	r0, r3
 747 005e FFF7FEFF 		bl	ParseCommand
 748              	.L37:
 749              	.LBE2:
 219:../Sources/com/term.c ****       }
 220:../Sources/com/term.c ****     #endif
 221:../Sources/com/term.c ****   }
 222:../Sources/com/term.c **** 
 223:../Sources/com/term.c ****   if (TGT_IS_TINYK22)
 750              		.loc 1 223 0
 751 0062 194B     		ldr	r3, .L42
 752 0064 03F58153 		add	r3, r3, #4128
 753 0068 0433     		adds	r3, r3, #4
 754 006a 1B68     		ldr	r3, [r3]
 755 006c 03F00F03 		and	r3, r3, #15
 756 0070 052B     		cmp	r3, #5
 757 0072 23D1     		bne	.L41
 224:../Sources/com/term.c ****   {
 225:../Sources/com/term.c ****     #if (UART1_EN)
 226:../Sources/com/term.c ****       if (uart1HasLineReceived())                   // process uart data from debug interface
 758              		.loc 1 226 0
 759 0074 FFF7FEFF 		bl	uart1HasLineReceived
 760 0078 0346     		mov	r3, r0
 761 007a 002B     		cmp	r3, #0
 762 007c 0CD0     		beq	.L40
 763              	.LBB3:
 227:../Sources/com/term.c ****       {
 228:../Sources/com/term.c ****         destination = uart1;
 764              		.loc 1 228 0
 765 007e 134B     		ldr	r3, .L42+4
 766 0080 0222     		movs	r2, #2
 767 0082 1A70     		strb	r2, [r3]
 229:../Sources/com/term.c ****         uart1ReadLine(cmd, sizeof(cmd));
 768              		.loc 1 229 0
 769 0084 3B46     		mov	r3, r7
 770 0086 4FF40071 		mov	r1, #512
 771 008a 1846     		mov	r0, r3
 772 008c FFF7FEFF 		bl	uart1ReadLine
 230:../Sources/com/term.c ****         ParseCommand(cmd);//termParseCommand(cmd);termParseCommand(cmd);
 773              		.loc 1 230 0
 774 0090 3B46     		mov	r3, r7
 775 0092 1846     		mov	r0, r3
 776 0094 FFF7FEFF 		bl	ParseCommand
 777              	.L40:
 778              	.LBE3:
 231:../Sources/com/term.c ****       }
 232:../Sources/com/term.c ****     #endif
 233:../Sources/com/term.c **** 
 234:../Sources/com/term.c **** 	#if (UART0_EN)
 235:../Sources/com/term.c ****       if (uart0HasLineReceived())
 779              		.loc 1 235 0
 780 0098 FFF7FEFF 		bl	uart0HasLineReceived
 781 009c 0346     		mov	r3, r0
 782 009e 002B     		cmp	r3, #0
 783 00a0 0CD0     		beq	.L41
 784              	.LBB4:
 236:../Sources/com/term.c ****       {
 237:../Sources/com/term.c ****         destination = uart0;
 785              		.loc 1 237 0
 786 00a2 0A4B     		ldr	r3, .L42+4
 787 00a4 0122     		movs	r2, #1
 788 00a6 1A70     		strb	r2, [r3]
 238:../Sources/com/term.c ****         uart0ReadLine(cmd, sizeof(cmd));            // process uart data from debug interface
 789              		.loc 1 238 0
 790 00a8 3B46     		mov	r3, r7
 791 00aa 4FF40071 		mov	r1, #512
 792 00ae 1846     		mov	r0, r3
 793 00b0 FFF7FEFF 		bl	uart0ReadLine
 239:../Sources/com/term.c ****         ParseCommand(cmd);
 794              		.loc 1 239 0
 795 00b4 3B46     		mov	r3, r7
 796 00b6 1846     		mov	r0, r3
 797 00b8 FFF7FEFF 		bl	ParseCommand
 798              	.L41:
 799              	.LBE4:
 240:../Sources/com/term.c ****       }
 241:../Sources/com/term.c ****     #endif
 242:../Sources/com/term.c ****   }
 243:../Sources/com/term.c **** }
 800              		.loc 1 243 0
 801 00bc 00BF     		nop
 802 00be 07F50077 		add	r7, r7, #512
 803              		.cfi_def_cfa_offset 8
 804 00c2 BD46     		mov	sp, r7
 805              		.cfi_def_cfa_register 13
 806              		@ sp needed
 807 00c4 80BD     		pop	{r7, pc}
 808              	.L43:
 809 00c6 00BF     		.align	2
 810              	.L42:
 811 00c8 00700440 		.word	1074032640
 812 00cc 00000000 		.word	destination
 813              		.cfi_endproc
 814              	.LFE133:
 816              		.section	.rodata
 817              		.align	2
 818              	.LC9:
 819 009c 4D432D43 		.ascii	"MC-Car ready... :-)\000"
 819      61722072 
 819      65616479 
 819      2E2E2E20 
 819      3A2D2900 
 820              		.align	2
 821              	.LC10:
 822 00b0 74696E79 		.ascii	"tinyk22 ready... :-)\000"
 822      6B323220 
 822      72656164 
 822      792E2E2E 
 822      203A2D29 
 823              		.section	.text.termInit,"ax",%progbits
 824              		.align	1
 825              		.global	termInit
 826              		.syntax unified
 827              		.thumb
 828              		.thumb_func
 829              		.fpu fpv4-sp-d16
 831              	termInit:
 832              	.LFB134:
 244:../Sources/com/term.c **** 
 245:../Sources/com/term.c **** /**
 246:../Sources/com/term.c ****  * Initialize the terminal with the desired baudrate.
 247:../Sources/com/term.c ****  *
 248:../Sources/com/term.c ****  * @param[in] baudrate
 249:../Sources/com/term.c ****  *   the desired baudrate (for example: 9600, 19200, 57600...)
 250:../Sources/com/term.c ****  */
 251:../Sources/com/term.c **** void termInit(uint16_t baudrate)
 252:../Sources/com/term.c **** {
 833              		.loc 1 252 0
 834              		.cfi_startproc
 835              		@ args = 0, pretend = 0, frame = 8
 836              		@ frame_needed = 1, uses_anonymous_args = 0
 837 0000 80B5     		push	{r7, lr}
 838              		.cfi_def_cfa_offset 8
 839              		.cfi_offset 7, -8
 840              		.cfi_offset 14, -4
 841 0002 82B0     		sub	sp, sp, #8
 842              		.cfi_def_cfa_offset 16
 843 0004 00AF     		add	r7, sp, #0
 844              		.cfi_def_cfa_register 7
 845 0006 0346     		mov	r3, r0
 846 0008 FB80     		strh	r3, [r7, #6]	@ movhi
 253:../Sources/com/term.c ****   // Send the first message to all uarts
 254:../Sources/com/term.c ****   destination = uartAll;
 847              		.loc 1 254 0
 848 000a 1A4B     		ldr	r3, .L48
 849 000c 0722     		movs	r2, #7
 850 000e 1A70     		strb	r2, [r3]
 255:../Sources/com/term.c **** 
 256:../Sources/com/term.c ****   if (TGT_IS_MCCAR)
 851              		.loc 1 256 0
 852 0010 194B     		ldr	r3, .L48+4
 853 0012 03F58153 		add	r3, r3, #4128
 854 0016 0433     		adds	r3, r3, #4
 855 0018 1B68     		ldr	r3, [r3]
 856 001a 03F00F03 		and	r3, r3, #15
 857 001e 082B     		cmp	r3, #8
 858 0020 0DD1     		bne	.L45
 257:../Sources/com/term.c ****   {
 258:../Sources/com/term.c ****     // initialize uart0 only if the uart is enabled
 259:../Sources/com/term.c ****     #if (UART0_EN)
 260:../Sources/com/term.c ****       uart0Init(baudrate);
 859              		.loc 1 260 0
 860 0022 FB88     		ldrh	r3, [r7, #6]
 861 0024 1846     		mov	r0, r3
 862 0026 FFF7FEFF 		bl	uart0Init
 261:../Sources/com/term.c ****     #endif
 262:../Sources/com/term.c **** 
 263:../Sources/com/term.c ****     // initialize lpuart0 only if the uart is enabled
 264:../Sources/com/term.c ****     #if (LPUART0_EN)
 265:../Sources/com/term.c ****       lpuart0Init(baudrate);
 863              		.loc 1 265 0
 864 002a FB88     		ldrh	r3, [r7, #6]
 865 002c 1846     		mov	r0, r3
 866 002e FFF7FEFF 		bl	lpuart0Init
 266:../Sources/com/term.c ****     #endif
 267:../Sources/com/term.c **** 
 268:../Sources/com/term.c ****     termWriteLine(NULL);
 867              		.loc 1 268 0
 868 0032 0020     		movs	r0, #0
 869 0034 FFF7FEFF 		bl	termWriteLine
 269:../Sources/com/term.c ****     termWriteLine("MC-Car ready... :-)");
 870              		.loc 1 269 0
 871 0038 1048     		ldr	r0, .L48+8
 872 003a FFF7FEFF 		bl	termWriteLine
 873              	.L45:
 270:../Sources/com/term.c ****   }
 271:../Sources/com/term.c **** 
 272:../Sources/com/term.c ****   if (TGT_IS_TINYK22)
 874              		.loc 1 272 0
 875 003e 0E4B     		ldr	r3, .L48+4
 876 0040 03F58153 		add	r3, r3, #4128
 877 0044 0433     		adds	r3, r3, #4
 878 0046 1B68     		ldr	r3, [r3]
 879 0048 03F00F03 		and	r3, r3, #15
 880 004c 052B     		cmp	r3, #5
 881 004e 0DD1     		bne	.L47
 273:../Sources/com/term.c ****   {
 274:../Sources/com/term.c ****     // initialize uart1 only if the uart is enabled
 275:../Sources/com/term.c **** #if (UART1_EN)
 276:../Sources/com/term.c ****   uart1Init(baudrate);
 882              		.loc 1 276 0
 883 0050 FB88     		ldrh	r3, [r7, #6]
 884 0052 1846     		mov	r0, r3
 885 0054 FFF7FEFF 		bl	uart1Init
 277:../Sources/com/term.c **** #endif
 278:../Sources/com/term.c **** 
 279:../Sources/com/term.c **** #if (UART0_EN)
 280:../Sources/com/term.c ****  uart0Init(baudrate);
 886              		.loc 1 280 0
 887 0058 FB88     		ldrh	r3, [r7, #6]
 888 005a 1846     		mov	r0, r3
 889 005c FFF7FEFF 		bl	uart0Init
 281:../Sources/com/term.c **** #endif
 282:../Sources/com/term.c ****     termWriteLine(NULL);
 890              		.loc 1 282 0
 891 0060 0020     		movs	r0, #0
 892 0062 FFF7FEFF 		bl	termWriteLine
 283:../Sources/com/term.c ****     termWriteLine("tinyk22 ready... :-)");
 893              		.loc 1 283 0
 894 0066 0648     		ldr	r0, .L48+12
 895 0068 FFF7FEFF 		bl	termWriteLine
 896              	.L47:
 284:../Sources/com/term.c ****   }
 285:../Sources/com/term.c **** }
 897              		.loc 1 285 0
 898 006c 00BF     		nop
 899 006e 0837     		adds	r7, r7, #8
 900              		.cfi_def_cfa_offset 8
 901 0070 BD46     		mov	sp, r7
 902              		.cfi_def_cfa_register 13
 903              		@ sp needed
 904 0072 80BD     		pop	{r7, pc}
 905              	.L49:
 906              		.align	2
 907              	.L48:
 908 0074 00000000 		.word	destination
 909 0078 00700440 		.word	1074032640
 910 007c 9C000000 		.word	.LC9
 911 0080 B0000000 		.word	.LC10
 912              		.cfi_endproc
 913              	.LFE134:
 915              		.text
 916              	.Letext0:
 917              		.file 2 "c:\\program files (x86)\\gnu tools arm embedded\\6 2017-q2-update\\arm-none-eabi\\include
 918              		.file 3 "c:\\program files (x86)\\gnu tools arm embedded\\6 2017-q2-update\\arm-none-eabi\\include
 919              		.file 4 "../Includes/core_cm4.h"
 920              		.file 5 "../Includes/system_MK22F51212.h"
 921              		.file 6 "../Includes/MK22F51212.h"
 922              		.file 7 "../Includes/platform.h"
 923              		.file 8 "../Sources/com/term.h"
 924              		.file 9 "c:\\program files (x86)\\gnu tools arm embedded\\6 2017-q2-update\\arm-none-eabi\\include
 925              		.file 10 "c:\\program files (x86)\\gnu tools arm embedded\\6 2017-q2-update\\arm-none-eabi\\includ
 926              		.file 11 "c:\\program files (x86)\\gnu tools arm embedded\\6 2017-q2-update\\lib\\gcc\\arm-none-ea
 927              		.file 12 "c:\\program files (x86)\\gnu tools arm embedded\\6 2017-q2-update\\arm-none-eabi\\includ
DEFINED SYMBOLS
                            *ABS*:00000000 term.c
C:\Users\zbind\AppData\Local\Temp\cc2oRI2q.s:20     .bss.destination:00000000 destination
C:\Users\zbind\AppData\Local\Temp\cc2oRI2q.s:21     .bss.destination:00000000 $d
C:\Users\zbind\AppData\Local\Temp\cc2oRI2q.s:23     .bss.head:00000000 $d
C:\Users\zbind\AppData\Local\Temp\cc2oRI2q.s:26     .bss.head:00000000 head
C:\Users\zbind\AppData\Local\Temp\cc2oRI2q.s:29     .rodata:00000000 $d
C:\Users\zbind\AppData\Local\Temp\cc2oRI2q.s:33     .text.termRegisterCommandLineHandler:00000000 $t
C:\Users\zbind\AppData\Local\Temp\cc2oRI2q.s:40     .text.termRegisterCommandLineHandler:00000000 termRegisterCommandLineHandler
C:\Users\zbind\AppData\Local\Temp\cc2oRI2q.s:108    .text.termRegisterCommandLineHandler:0000005c $d
C:\Users\zbind\AppData\Local\Temp\cc2oRI2q.s:114    .text.termWriteChar:00000000 $t
C:\Users\zbind\AppData\Local\Temp\cc2oRI2q.s:121    .text.termWriteChar:00000000 termWriteChar
C:\Users\zbind\AppData\Local\Temp\cc2oRI2q.s:208    .text.termWriteChar:00000090 $d
C:\Users\zbind\AppData\Local\Temp\cc2oRI2q.s:214    .text.termWrite:00000000 $t
C:\Users\zbind\AppData\Local\Temp\cc2oRI2q.s:221    .text.termWrite:00000000 termWrite
C:\Users\zbind\AppData\Local\Temp\cc2oRI2q.s:272    .text.termWriteNum32s:00000000 $t
C:\Users\zbind\AppData\Local\Temp\cc2oRI2q.s:279    .text.termWriteNum32s:00000000 termWriteNum32s
C:\Users\zbind\AppData\Local\Temp\cc2oRI2q.s:316    .text.termWriteNum16s:00000000 $t
C:\Users\zbind\AppData\Local\Temp\cc2oRI2q.s:323    .text.termWriteNum16s:00000000 termWriteNum16s
C:\Users\zbind\AppData\Local\Temp\cc2oRI2q.s:361    .text.termWriteLine:00000000 $t
C:\Users\zbind\AppData\Local\Temp\cc2oRI2q.s:368    .text.termWriteLine:00000000 termWriteLine
C:\Users\zbind\AppData\Local\Temp\cc2oRI2q.s:401    .text.termWriteSubString:00000000 $t
C:\Users\zbind\AppData\Local\Temp\cc2oRI2q.s:408    .text.termWriteSubString:00000000 termWriteSubString
C:\Users\zbind\AppData\Local\Temp\cc2oRI2q.s:486    .text.termParseCommand:00000000 $t
C:\Users\zbind\AppData\Local\Temp\cc2oRI2q.s:493    .text.termParseCommand:00000000 termParseCommand
C:\Users\zbind\AppData\Local\Temp\cc2oRI2q.s:667    .text.termParseCommand:00000114 $d
C:\Users\zbind\AppData\Local\Temp\cc2oRI2q.s:681    .text.termDoWork:00000000 $t
C:\Users\zbind\AppData\Local\Temp\cc2oRI2q.s:688    .text.termDoWork:00000000 termDoWork
C:\Users\zbind\AppData\Local\Temp\cc2oRI2q.s:811    .text.termDoWork:000000c8 $d
C:\Users\zbind\AppData\Local\Temp\cc2oRI2q.s:824    .text.termInit:00000000 $t
C:\Users\zbind\AppData\Local\Temp\cc2oRI2q.s:831    .text.termInit:00000000 termInit
C:\Users\zbind\AppData\Local\Temp\cc2oRI2q.s:908    .text.termInit:00000074 $d
                     .debug_frame:00000010 $d
                           .group:00000000 wm4.0.a6d4f739a788c67292a3ea0a48d10bd5
                           .group:00000000 wm4.MK22F51212.h.96.792c303daa596f91c029224edd7c60aa
                           .group:00000000 wm4._newlib_version.h.4.3572908597b70d672d181fc7fc501c19
                           .group:00000000 wm4.features.h.33.cf97d4c9a045ebab6d282f6356e11363
                           .group:00000000 wm4._default_types.h.15.247e5cd201eca3442cbf5404108c4935
                           .group:00000000 wm4._intsup.h.10.cce27fed8484c08a33f522034c30d2b5
                           .group:00000000 wm4._stdint.h.10.c24fa3af3bc1706662bb5593a907e841
                           .group:00000000 wm4.stdint.h.23.d53047a68f4a85177f80b422d52785ed
                           .group:00000000 wm4.MK22F51212.h.109.eeee73bf5f54e3f06177795004b95e22
                           .group:00000000 wm4.core_cm4.h.43.f75e2f71b2e33f7a3db429cd8b0cae9e
                           .group:00000000 wm4.core_cmInstr.h.39.addda81f1f3453ba31dd54fc5b6fcee8
                           .group:00000000 wm4.core_cmSimd.h.43.c355993beb49ccd10586af5b1cfe5aee
                           .group:00000000 wm4.core_cm4.h.201.a59e218d30e39d114c8962bbad645c74
                           .group:00000000 wm4.system_MK22F51212.h.94.09b5fd63c227fb82ca8c370fba9e2334
                           .group:00000000 wm4.MK22F51212.h.369.5a9c5aa32d240e03ff494f1c769cfadf
                           .group:00000000 wm4.platform.h.20.f6c90800ad13d6e4c49f383292c252be
                           .group:00000000 wm4.uart.h.20.e808e267898fbf91367a09dc2246650b
                           .group:00000000 wm4.newlib.h.8.5f2124c7e712be65f83b91ff86a0b1c1
                           .group:00000000 wm4.config.h.219.65a553ab5bef5482f0d7880b0d33015e
                           .group:00000000 wm4._ansi.h.23.9f8fcfa20193763fcf364fb91705c94b
                           .group:00000000 wm4.stddef.h.39.99b5021e28f91cdb161c889e07266673
                           .group:00000000 wm4.lock.h.2.1461d1fff82dffe8bfddc23307f6484f
                           .group:00000000 wm4._types.h.125.5cf8a495f1f7ef36777ad868a1e32068
                           .group:00000000 wm4.stddef.h.161.5349cb105733e8777bfb0cf53c4e3f34
                           .group:00000000 wm4._types.h.183.c226d164ceca1f2ecb9ae9360c54a098
                           .group:00000000 wm4.reent.h.17.23b059516345f8f5abfa01ddc379570f
                           .group:00000000 wm4.cdefs.h.47.776a25dae4205bae6cce27d545bc475b
                           .group:00000000 wm4.string.h.15.dab3980bf35408a4c507182805e2de3a
                           .group:00000000 wm4.stddef.h.161.19e15733342b50ead2919490b095303e

UNDEFINED SYMBOLS
strncpy
strlen
uart0WriteChar
lpuart0WriteChar
uart1WriteChar
utilNum32sToStr
utilNum16sToStr
strcmp
strncmp
utilNum16uToStr
uart0HasLineReceived
uart0ReadLine
lpuart0HasLineReceived
lpuart0ReadLine
ParseCommand
uart1HasLineReceived
uart1ReadLine
uart0Init
lpuart0Init
uart1Init
